%YAML 1.1
%TAG !u! tag:unity3d.com,2011:
--- !u!29 &1
OcclusionCullingSettings:
  m_ObjectHideFlags: 0
  serializedVersion: 2
  m_OcclusionBakeSettings:
    smallestOccluder: 5
    smallestHole: 0.25
    backfaceThreshold: 100
  m_SceneGUID: 00000000000000000000000000000000
  m_OcclusionCullingData: {fileID: 0}
--- !u!104 &2
RenderSettings:
  m_ObjectHideFlags: 0
  serializedVersion: 9
  m_Fog: 0
  m_FogColor: {r: 0.5, g: 0.5, b: 0.5, a: 1}
  m_FogMode: 3
  m_FogDensity: 0.01
  m_LinearFogStart: 0
  m_LinearFogEnd: 300
  m_AmbientSkyColor: {r: 0.212, g: 0.227, b: 0.259, a: 1}
  m_AmbientEquatorColor: {r: 0.114, g: 0.125, b: 0.133, a: 1}
  m_AmbientGroundColor: {r: 0.047, g: 0.043, b: 0.035, a: 1}
  m_AmbientIntensity: 1
  m_AmbientMode: 0
  m_SubtractiveShadowColor: {r: 0.42, g: 0.478, b: 0.627, a: 1}
  m_SkyboxMaterial: {fileID: 10304, guid: 0000000000000000f000000000000000, type: 0}
  m_HaloStrength: 0.5
  m_FlareStrength: 1
  m_FlareFadeSpeed: 3
  m_HaloTexture: {fileID: 0}
  m_SpotCookie: {fileID: 10001, guid: 0000000000000000e000000000000000, type: 0}
  m_DefaultReflectionMode: 0
  m_DefaultReflectionResolution: 128
  m_ReflectionBounces: 1
  m_ReflectionIntensity: 1
  m_CustomReflection: {fileID: 0}
  m_Sun: {fileID: 0}
  m_IndirectSpecularColor: {r: 0.44657898, g: 0.4964133, b: 0.5748178, a: 1}
  m_UseRadianceAmbientProbe: 0
--- !u!157 &4
LightmapSettings:
  m_ObjectHideFlags: 0
  serializedVersion: 12
  m_GIWorkflowMode: 0
  m_GISettings:
    serializedVersion: 2
    m_BounceScale: 1
    m_IndirectOutputScale: 1
    m_AlbedoBoost: 1
    m_EnvironmentLightingMode: 0
    m_EnableBakedLightmaps: 1
    m_EnableRealtimeLightmaps: 1
  m_LightmapEditorSettings:
    serializedVersion: 12
    m_Resolution: 2
    m_BakeResolution: 40
    m_AtlasSize: 1024
    m_AO: 0
    m_AOMaxDistance: 1
    m_CompAOExponent: 0
    m_CompAOExponentDirect: 0
    m_ExtractAmbientOcclusion: 0
    m_Padding: 2
    m_LightmapParameters: {fileID: 0}
    m_LightmapsBakeMode: 1
    m_TextureCompression: 1
    m_FinalGather: 0
    m_FinalGatherFiltering: 1
    m_FinalGatherRayCount: 1024
    m_ReflectionCompression: 2
    m_MixedBakeMode: 1
    m_BakeBackend: 0
    m_PVRSampling: 1
    m_PVRDirectSampleCount: 32
    m_PVRSampleCount: 512
    m_PVRBounces: 2
    m_PVREnvironmentSampleCount: 512
    m_PVREnvironmentReferencePointCount: 2048
    m_PVRFilteringMode: 0
    m_PVRDenoiserTypeDirect: 0
    m_PVRDenoiserTypeIndirect: 0
    m_PVRDenoiserTypeAO: 0
    m_PVRFilterTypeDirect: 0
    m_PVRFilterTypeIndirect: 0
    m_PVRFilterTypeAO: 0
    m_PVREnvironmentMIS: 0
    m_PVRCulling: 1
    m_PVRFilteringGaussRadiusDirect: 1
    m_PVRFilteringGaussRadiusIndirect: 5
    m_PVRFilteringGaussRadiusAO: 2
    m_PVRFilteringAtrousPositionSigmaDirect: 0.5
    m_PVRFilteringAtrousPositionSigmaIndirect: 2
    m_PVRFilteringAtrousPositionSigmaAO: 1
    m_ExportTrainingData: 0
    m_TrainingDataDestination: TrainingData
    m_LightProbeSampleCountMultiplier: 4
  m_LightingDataAsset: {fileID: 0}
  m_LightingSettings: {fileID: 4890085278179872738, guid: 14ade2f7d1a9b6b4a957663e6e317291, type: 2}
--- !u!196 &5
NavMeshSettings:
  serializedVersion: 2
  m_ObjectHideFlags: 0
  m_BuildSettings:
    serializedVersion: 2
    agentTypeID: 0
    agentRadius: 0.5
    agentHeight: 2
    agentSlope: 45
    agentClimb: 0.4
    ledgeDropHeight: 0
    maxJumpAcrossDistance: 0
    minRegionArea: 2
    manualCellSize: 0
    cellSize: 0.16666667
    manualTileSize: 0
    tileSize: 256
    accuratePlacement: 0
    maxJobWorkers: 0
    preserveTilesOutsideBounds: 0
    debug:
      m_Flags: 0
  m_NavMeshData: {fileID: 0}
--- !u!1001 &97158594
PrefabInstance:
  m_ObjectHideFlags: 0
  serializedVersion: 2
  m_Modification:
    m_TransformParent: {fileID: 0}
    m_Modifications:
    - target: {fileID: 498210, guid: 7f285613e2a51df40a71af5d91b8e7c5, type: 3}
      propertyPath: m_RootOrder
      value: 23
      objectReference: {fileID: 0}
    - target: {fileID: 498210, guid: 7f285613e2a51df40a71af5d91b8e7c5, type: 3}
      propertyPath: m_LocalPosition.x
      value: .689999998
      objectReference: {fileID: 0}
    - target: {fileID: 498210, guid: 7f285613e2a51df40a71af5d91b8e7c5, type: 3}
      propertyPath: m_LocalPosition.y
      value: 0
      objectReference: {fileID: 0}
    - target: {fileID: 498210, guid: 7f285613e2a51df40a71af5d91b8e7c5, type: 3}
      propertyPath: m_LocalPosition.z
      value: 1.82000005
      objectReference: {fileID: 0}
    - target: {fileID: 498210, guid: 7f285613e2a51df40a71af5d91b8e7c5, type: 3}
      propertyPath: m_LocalRotation.w
      value: 1
      objectReference: {fileID: 0}
    - target: {fileID: 498210, guid: 7f285613e2a51df40a71af5d91b8e7c5, type: 3}
      propertyPath: m_LocalRotation.x
      value: 0
      objectReference: {fileID: 0}
    - target: {fileID: 498210, guid: 7f285613e2a51df40a71af5d91b8e7c5, type: 3}
      propertyPath: m_LocalRotation.y
      value: 0
      objectReference: {fileID: 0}
    - target: {fileID: 498210, guid: 7f285613e2a51df40a71af5d91b8e7c5, type: 3}
      propertyPath: m_LocalRotation.z
      value: 0
      objectReference: {fileID: 0}
    m_RemovedComponents: []
  m_SourcePrefab: {fileID: 100100000, guid: 7f285613e2a51df40a71af5d91b8e7c5, type: 3}
--- !u!1001 &137222979
PrefabInstance:
  m_ObjectHideFlags: 0
  serializedVersion: 2
  m_Modification:
    m_TransformParent: {fileID: 0}
    m_Modifications:
    - target: {fileID: 492148, guid: 4045dbaae77b39241bd7c0edbd188a33, type: 3}
      propertyPath: m_RootOrder
      value: 21
      objectReference: {fileID: 0}
    - target: {fileID: 492148, guid: 4045dbaae77b39241bd7c0edbd188a33, type: 3}
      propertyPath: m_LocalPosition.x
      value: 2.98000002
      objectReference: {fileID: 0}
    - target: {fileID: 492148, guid: 4045dbaae77b39241bd7c0edbd188a33, type: 3}
      propertyPath: m_LocalPosition.y
      value: 0
      objectReference: {fileID: 0}
    - target: {fileID: 492148, guid: 4045dbaae77b39241bd7c0edbd188a33, type: 3}
      propertyPath: m_LocalPosition.z
      value: 1.82000005
      objectReference: {fileID: 0}
    - target: {fileID: 492148, guid: 4045dbaae77b39241bd7c0edbd188a33, type: 3}
      propertyPath: m_LocalRotation.w
      value: 1
      objectReference: {fileID: 0}
    - target: {fileID: 492148, guid: 4045dbaae77b39241bd7c0edbd188a33, type: 3}
      propertyPath: m_LocalRotation.x
      value: 0
      objectReference: {fileID: 0}
    - target: {fileID: 492148, guid: 4045dbaae77b39241bd7c0edbd188a33, type: 3}
      propertyPath: m_LocalRotation.y
      value: 0
      objectReference: {fileID: 0}
    - target: {fileID: 492148, guid: 4045dbaae77b39241bd7c0edbd188a33, type: 3}
      propertyPath: m_LocalRotation.z
      value: 0
      objectReference: {fileID: 0}
    m_RemovedComponents: []
  m_SourcePrefab: {fileID: 100100000, guid: 4045dbaae77b39241bd7c0edbd188a33, type: 3}
--- !u!1001 &234843177
PrefabInstance:
  m_ObjectHideFlags: 0
  serializedVersion: 2
  m_Modification:
    m_TransformParent: {fileID: 0}
    m_Modifications:
    - target: {fileID: 458256, guid: be2bbb2411890c147b59423a27c3dc07, type: 3}
      propertyPath: m_RootOrder
      value: 2
      objectReference: {fileID: 0}
    - target: {fileID: 458256, guid: be2bbb2411890c147b59423a27c3dc07, type: 3}
      propertyPath: m_LocalPosition.x
      value: -2.05699992
      objectReference: {fileID: 0}
    - target: {fileID: 458256, guid: be2bbb2411890c147b59423a27c3dc07, type: 3}
      propertyPath: m_LocalPosition.y
      value: 0
      objectReference: {fileID: 0}
    - target: {fileID: 458256, guid: be2bbb2411890c147b59423a27c3dc07, type: 3}
      propertyPath: m_LocalPosition.z
      value: 0
      objectReference: {fileID: 0}
    - target: {fileID: 458256, guid: be2bbb2411890c147b59423a27c3dc07, type: 3}
      propertyPath: m_LocalRotation.w
      value: 1
      objectReference: {fileID: 0}
    - target: {fileID: 458256, guid: be2bbb2411890c147b59423a27c3dc07, type: 3}
      propertyPath: m_LocalRotation.x
      value: 0
      objectReference: {fileID: 0}
    - target: {fileID: 458256, guid: be2bbb2411890c147b59423a27c3dc07, type: 3}
      propertyPath: m_LocalRotation.y
      value: 0
      objectReference: {fileID: 0}
    - target: {fileID: 458256, guid: be2bbb2411890c147b59423a27c3dc07, type: 3}
      propertyPath: m_LocalRotation.z
      value: 0
      objectReference: {fileID: 0}
    m_RemovedComponents: []
  m_SourcePrefab: {fileID: 100100000, guid: be2bbb2411890c147b59423a27c3dc07, type: 3}
--- !u!1001 &254439852
PrefabInstance:
  m_ObjectHideFlags: 0
  serializedVersion: 2
  m_Modification:
    m_TransformParent: {fileID: 0}
    m_Modifications:
    - target: {fileID: 464540, guid: 0a5c236a7b8473c4db6e870cfe814a12, type: 3}
      propertyPath: m_RootOrder
      value: 1
      objectReference: {fileID: 0}
    - target: {fileID: 464540, guid: 0a5c236a7b8473c4db6e870cfe814a12, type: 3}
      propertyPath: m_LocalPosition.x
      value: 4.11199999
      objectReference: {fileID: 0}
    - target: {fileID: 464540, guid: 0a5c236a7b8473c4db6e870cfe814a12, type: 3}
      propertyPath: m_LocalPosition.y
      value: 0
      objectReference: {fileID: 0}
    - target: {fileID: 464540, guid: 0a5c236a7b8473c4db6e870cfe814a12, type: 3}
      propertyPath: m_LocalPosition.z
      value: 0
      objectReference: {fileID: 0}
    - target: {fileID: 464540, guid: 0a5c236a7b8473c4db6e870cfe814a12, type: 3}
      propertyPath: m_LocalRotation.w
      value: 1
      objectReference: {fileID: 0}
    - target: {fileID: 464540, guid: 0a5c236a7b8473c4db6e870cfe814a12, type: 3}
      propertyPath: m_LocalRotation.x
      value: 0
      objectReference: {fileID: 0}
    - target: {fileID: 464540, guid: 0a5c236a7b8473c4db6e870cfe814a12, type: 3}
      propertyPath: m_LocalRotation.y
      value: 0
      objectReference: {fileID: 0}
    - target: {fileID: 464540, guid: 0a5c236a7b8473c4db6e870cfe814a12, type: 3}
      propertyPath: m_LocalRotation.z
      value: 0
      objectReference: {fileID: 0}
    m_RemovedComponents: []
  m_SourcePrefab: {fileID: 100100000, guid: 0a5c236a7b8473c4db6e870cfe814a12, type: 3}
--- !u!1001 &466038537
PrefabInstance:
  m_ObjectHideFlags: 0
  serializedVersion: 2
  m_Modification:
    m_TransformParent: {fileID: 0}
    m_Modifications:
    - target: {fileID: 497166, guid: 66ec70d7de4f4c644a7ace1f5f0a2a9f, type: 3}
      propertyPath: m_RootOrder
      value: 8
      objectReference: {fileID: 0}
    - target: {fileID: 497166, guid: 66ec70d7de4f4c644a7ace1f5f0a2a9f, type: 3}
      propertyPath: m_LocalPosition.x
      value: 6.32000017
      objectReference: {fileID: 0}
    - target: {fileID: 497166, guid: 66ec70d7de4f4c644a7ace1f5f0a2a9f, type: 3}
      propertyPath: m_LocalPosition.y
      value: 0
      objectReference: {fileID: 0}
    - target: {fileID: 497166, guid: 66ec70d7de4f4c644a7ace1f5f0a2a9f, type: 3}
      propertyPath: m_LocalPosition.z
      value: -2.02999997
      objectReference: {fileID: 0}
    - target: {fileID: 497166, guid: 66ec70d7de4f4c644a7ace1f5f0a2a9f, type: 3}
      propertyPath: m_LocalRotation.w
      value: 1
      objectReference: {fileID: 0}
    - target: {fileID: 497166, guid: 66ec70d7de4f4c644a7ace1f5f0a2a9f, type: 3}
      propertyPath: m_LocalRotation.x
      value: 0
      objectReference: {fileID: 0}
    - target: {fileID: 497166, guid: 66ec70d7de4f4c644a7ace1f5f0a2a9f, type: 3}
      propertyPath: m_LocalRotation.y
      value: 0
      objectReference: {fileID: 0}
    - target: {fileID: 497166, guid: 66ec70d7de4f4c644a7ace1f5f0a2a9f, type: 3}
      propertyPath: m_LocalRotation.z
      value: 0
      objectReference: {fileID: 0}
    m_RemovedComponents: []
  m_SourcePrefab: {fileID: 100100000, guid: 66ec70d7de4f4c644a7ace1f5f0a2a9f, type: 3}
--- !u!1001 &625609325
PrefabInstance:
  m_ObjectHideFlags: 0
  serializedVersion: 2
  m_Modification:
    m_TransformParent: {fileID: 0}
    m_Modifications:
    - target: {fileID: 419076, guid: 97c46f85ed671244b83b2409f56039d1, type: 3}
      propertyPath: m_RootOrder
      value: 6
      objectReference: {fileID: 0}
    - target: {fileID: 419076, guid: 97c46f85ed671244b83b2409f56039d1, type: 3}
      propertyPath: m_LocalPosition.x
      value: .0199999996
      objectReference: {fileID: 0}
    - target: {fileID: 419076, guid: 97c46f85ed671244b83b2409f56039d1, type: 3}
      propertyPath: m_LocalPosition.y
      value: 0
      objectReference: {fileID: 0}
    - target: {fileID: 419076, guid: 97c46f85ed671244b83b2409f56039d1, type: 3}
      propertyPath: m_LocalPosition.z
      value: -2.02999997
      objectReference: {fileID: 0}
    - target: {fileID: 419076, guid: 97c46f85ed671244b83b2409f56039d1, type: 3}
      propertyPath: m_LocalRotation.w
      value: 1
      objectReference: {fileID: 0}
    - target: {fileID: 419076, guid: 97c46f85ed671244b83b2409f56039d1, type: 3}
      propertyPath: m_LocalRotation.x
      value: 0
      objectReference: {fileID: 0}
    - target: {fileID: 419076, guid: 97c46f85ed671244b83b2409f56039d1, type: 3}
      propertyPath: m_LocalRotation.y
      value: 0
      objectReference: {fileID: 0}
    - target: {fileID: 419076, guid: 97c46f85ed671244b83b2409f56039d1, type: 3}
      propertyPath: m_LocalRotation.z
      value: 0
      objectReference: {fileID: 0}
    m_RemovedComponents: []
  m_SourcePrefab: {fileID: 100100000, guid: 97c46f85ed671244b83b2409f56039d1, type: 3}
--- !u!1001 &639642999
PrefabInstance:
  m_ObjectHideFlags: 0
  serializedVersion: 2
  m_Modification:
    m_TransformParent: {fileID: 0}
    m_Modifications:
    - target: {fileID: 439110, guid: e1f36af446286a549b992a70451f884e, type: 3}
      propertyPath: m_RootOrder
      value: 4
      objectReference: {fileID: 0}
    - target: {fileID: 439110, guid: e1f36af446286a549b992a70451f884e, type: 3}
      propertyPath: m_LocalPosition.x
      value: 6.21999979
      objectReference: {fileID: 0}
    - target: {fileID: 439110, guid: e1f36af446286a549b992a70451f884e, type: 3}
      propertyPath: m_LocalPosition.y
      value: 0
      objectReference: {fileID: 0}
    - target: {fileID: 439110, guid: e1f36af446286a549b992a70451f884e, type: 3}
      propertyPath: m_LocalPosition.z
      value: 0
      objectReference: {fileID: 0}
    - target: {fileID: 439110, guid: e1f36af446286a549b992a70451f884e, type: 3}
      propertyPath: m_LocalRotation.w
      value: 1
      objectReference: {fileID: 0}
    - target: {fileID: 439110, guid: e1f36af446286a549b992a70451f884e, type: 3}
      propertyPath: m_LocalRotation.x
      value: 0
      objectReference: {fileID: 0}
    - target: {fileID: 439110, guid: e1f36af446286a549b992a70451f884e, type: 3}
      propertyPath: m_LocalRotation.y
      value: 0
      objectReference: {fileID: 0}
    - target: {fileID: 439110, guid: e1f36af446286a549b992a70451f884e, type: 3}
      propertyPath: m_LocalRotation.z
      value: 0
      objectReference: {fileID: 0}
    m_RemovedComponents: []
  m_SourcePrefab: {fileID: 100100000, guid: e1f36af446286a549b992a70451f884e, type: 3}
--- !u!1001 &677978782
PrefabInstance:
  m_ObjectHideFlags: 0
  serializedVersion: 2
  m_Modification:
    m_TransformParent: {fileID: 0}
    m_Modifications:
    - target: {fileID: 495398, guid: 3f42b29f9f09e0e40b05df7c984384f1, type: 3}
      propertyPath: m_RootOrder
      value: 13
      objectReference: {fileID: 0}
    - target: {fileID: 495398, guid: 3f42b29f9f09e0e40b05df7c984384f1, type: 3}
      propertyPath: m_LocalPosition.x
      value: 2.1400001
      objectReference: {fileID: 0}
    - target: {fileID: 495398, guid: 3f42b29f9f09e0e40b05df7c984384f1, type: 3}
      propertyPath: m_LocalPosition.y
      value: 0
      objectReference: {fileID: 0}
    - target: {fileID: 495398, guid: 3f42b29f9f09e0e40b05df7c984384f1, type: 3}
      propertyPath: m_LocalPosition.z
      value: -2.02999997
      objectReference: {fileID: 0}
    - target: {fileID: 495398, guid: 3f42b29f9f09e0e40b05df7c984384f1, type: 3}
      propertyPath: m_LocalRotation.w
      value: 1
      objectReference: {fileID: 0}
    - target: {fileID: 495398, guid: 3f42b29f9f09e0e40b05df7c984384f1, type: 3}
      propertyPath: m_LocalRotation.x
      value: 0
      objectReference: {fileID: 0}
    - target: {fileID: 495398, guid: 3f42b29f9f09e0e40b05df7c984384f1, type: 3}
      propertyPath: m_LocalRotation.y
      value: 0
      objectReference: {fileID: 0}
    - target: {fileID: 495398, guid: 3f42b29f9f09e0e40b05df7c984384f1, type: 3}
      propertyPath: m_LocalRotation.z
      value: 0
      objectReference: {fileID: 0}
    - target: {fileID: 9513408, guid: 3f42b29f9f09e0e40b05df7c984384f1, type: 3}
      propertyPath: m_Controller
      value: 
      objectReference: {fileID: 0}
    m_RemovedComponents: []
  m_SourcePrefab: {fileID: 100100000, guid: 3f42b29f9f09e0e40b05df7c984384f1, type: 3}
--- !u!1001 &722942462
PrefabInstance:
  m_ObjectHideFlags: 0
  serializedVersion: 2
  m_Modification:
    m_TransformParent: {fileID: 0}
    m_Modifications:
    - target: {fileID: 476682, guid: 24438bb8ac649ea46b56ab6b0404db1a, type: 3}
      propertyPath: m_RootOrder
      value: 28
      objectReference: {fileID: 0}
    - target: {fileID: 476682, guid: 24438bb8ac649ea46b56ab6b0404db1a, type: 3}
      propertyPath: m_LocalPosition.x
      value: 1
      objectReference: {fileID: 0}
    - target: {fileID: 476682, guid: 24438bb8ac649ea46b56ab6b0404db1a, type: 3}
      propertyPath: m_LocalPosition.y
      value: 0
      objectReference: {fileID: 0}
    - target: {fileID: 476682, guid: 24438bb8ac649ea46b56ab6b0404db1a, type: 3}
      propertyPath: m_LocalPosition.z
      value: 1.82000005
      objectReference: {fileID: 0}
    - target: {fileID: 476682, guid: 24438bb8ac649ea46b56ab6b0404db1a, type: 3}
      propertyPath: m_LocalRotation.w
      value: 1
      objectReference: {fileID: 0}
    - target: {fileID: 476682, guid: 24438bb8ac649ea46b56ab6b0404db1a, type: 3}
      propertyPath: m_LocalRotation.x
      value: 0
      objectReference: {fileID: 0}
    - target: {fileID: 476682, guid: 24438bb8ac649ea46b56ab6b0404db1a, type: 3}
      propertyPath: m_LocalRotation.y
      value: 0
      objectReference: {fileID: 0}
    - target: {fileID: 476682, guid: 24438bb8ac649ea46b56ab6b0404db1a, type: 3}
      propertyPath: m_LocalRotation.z
      value: 0
      objectReference: {fileID: 0}
    m_RemovedComponents: []
  m_SourcePrefab: {fileID: 100100000, guid: 24438bb8ac649ea46b56ab6b0404db1a, type: 3}
--- !u!1001 &732359938
PrefabInstance:
  m_ObjectHideFlags: 0
  serializedVersion: 2
  m_Modification:
    m_TransformParent: {fileID: 0}
    m_Modifications:
    - target: {fileID: 421702, guid: 12caa982699ea3b41a15a260d90f16a0, type: 3}
      propertyPath: m_RootOrder
      value: 16
      objectReference: {fileID: 0}
    - target: {fileID: 421702, guid: 12caa982699ea3b41a15a260d90f16a0, type: 3}
      propertyPath: m_LocalPosition.x
      value: 5
      objectReference: {fileID: 0}
    - target: {fileID: 421702, guid: 12caa982699ea3b41a15a260d90f16a0, type: 3}
      propertyPath: m_LocalPosition.y
      value: 0
      objectReference: {fileID: 0}
    - target: {fileID: 421702, guid: 12caa982699ea3b41a15a260d90f16a0, type: 3}
      propertyPath: m_LocalPosition.z
      value: 1.82000005
      objectReference: {fileID: 0}
    - target: {fileID: 421702, guid: 12caa982699ea3b41a15a260d90f16a0, type: 3}
      propertyPath: m_LocalRotation.w
      value: 1
      objectReference: {fileID: 0}
    - target: {fileID: 421702, guid: 12caa982699ea3b41a15a260d90f16a0, type: 3}
      propertyPath: m_LocalRotation.x
      value: 0
      objectReference: {fileID: 0}
    - target: {fileID: 421702, guid: 12caa982699ea3b41a15a260d90f16a0, type: 3}
      propertyPath: m_LocalRotation.y
      value: 0
      objectReference: {fileID: 0}
    - target: {fileID: 421702, guid: 12caa982699ea3b41a15a260d90f16a0, type: 3}
      propertyPath: m_LocalRotation.z
      value: 0
      objectReference: {fileID: 0}
    m_RemovedComponents: []
  m_SourcePrefab: {fileID: 100100000, guid: 12caa982699ea3b41a15a260d90f16a0, type: 3}
--- !u!1 &806023650
GameObject:
  m_ObjectHideFlags: 0
  m_CorrespondingSourceObject: {fileID: 0}
  m_PrefabInstance: {fileID: 0}
  m_PrefabAsset: {fileID: 0}
  serializedVersion: 6
  m_Component:
  - component: {fileID: 806023655}
  - component: {fileID: 806023654}
  - component: {fileID: 806023652}
  - component: {fileID: 806023651}
  m_Layer: 0
  m_Name: Main Camera
  m_TagString: MainCamera
  m_Icon: {fileID: 0}
  m_NavMeshLayer: 0
  m_StaticEditorFlags: 0
  m_IsActive: 1
--- !u!81 &806023651
AudioListener:
  m_ObjectHideFlags: 0
  m_CorrespondingSourceObject: {fileID: 0}
  m_PrefabInstance: {fileID: 0}
  m_PrefabAsset: {fileID: 0}
  m_GameObject: {fileID: 806023650}
  m_Enabled: 1
--- !u!124 &806023652
Behaviour:
  m_ObjectHideFlags: 0
  m_CorrespondingSourceObject: {fileID: 0}
  m_PrefabInstance: {fileID: 0}
  m_PrefabAsset: {fileID: 0}
  m_GameObject: {fileID: 806023650}
  m_Enabled: 1
--- !u!20 &806023654
Camera:
  m_ObjectHideFlags: 0
  m_CorrespondingSourceObject: {fileID: 0}
  m_PrefabInstance: {fileID: 0}
  m_PrefabAsset: {fileID: 0}
  m_GameObject: {fileID: 806023650}
  m_Enabled: 1
  serializedVersion: 2
  m_ClearFlags: 1
  m_BackGroundColor: {r: 0.19215687, g: 0.3019608, b: 0.4745098, a: 0.019607844}
  m_projectionMatrixMode: 1
  m_GateFitMode: 2
  m_FOVAxisMode: 0
  m_SensorSize: {x: 36, y: 24}
  m_LensShift: {x: 0, y: 0}
  m_FocalLength: 50
  m_NormalizedViewPortRect:
    serializedVersion: 2
    x: 0
    y: 0
    width: 1
    height: 1
  near clip plane: 0.3
  far clip plane: 1000
  field of view: 60
  orthographic: 0
  orthographic size: 5
  m_Depth: -1
  m_CullingMask:
    serializedVersion: 2
    m_Bits: 4294967295
  m_RenderingPath: -1
  m_TargetTexture: {fileID: 0}
  m_TargetDisplay: 0
  m_TargetEye: 3
  m_HDR: 0
  m_AllowMSAA: 1
  m_AllowDynamicResolution: 0
  m_ForceIntoRT: 0
  m_OcclusionCulling: 1
  m_StereoConvergence: 10
  m_StereoSeparation: 0.022
--- !u!4 &806023655
Transform:
  m_ObjectHideFlags: 0
  m_CorrespondingSourceObject: {fileID: 0}
  m_PrefabInstance: {fileID: 0}
  m_PrefabAsset: {fileID: 0}
  m_GameObject: {fileID: 806023650}
  m_LocalRotation: {x: 0.034136485, y: -0.95418286, z: 0.119714394, w: 0.27209985}
  m_LocalPosition: {x: 8.301377, y: 2.2078855, z: 4.7216835}
  m_LocalScale: {x: 1, y: 1, z: 1}
  m_Children: []
  m_Father: {fileID: 0}
  m_RootOrder: 11
  m_LocalEulerAnglesHint: {x: 0, y: 0, z: 0}
--- !u!1001 &922849341
PrefabInstance:
  m_ObjectHideFlags: 0
  serializedVersion: 2
  m_Modification:
    m_TransformParent: {fileID: 0}
    m_Modifications:
    - target: {fileID: 474662, guid: 0ceb7a0fab62ffe4c8c9220209ae013c, type: 3}
      propertyPath: m_RootOrder
      value: 17
      objectReference: {fileID: 0}
    - target: {fileID: 474662, guid: 0ceb7a0fab62ffe4c8c9220209ae013c, type: 3}
      propertyPath: m_LocalPosition.x
      value: 1.60000002
      objectReference: {fileID: 0}
    - target: {fileID: 474662, guid: 0ceb7a0fab62ffe4c8c9220209ae013c, type: 3}
      propertyPath: m_LocalPosition.y
      value: 0
      objectReference: {fileID: 0}
    - target: {fileID: 474662, guid: 0ceb7a0fab62ffe4c8c9220209ae013c, type: 3}
      propertyPath: m_LocalPosition.z
      value: 1.82000005
      objectReference: {fileID: 0}
    - target: {fileID: 474662, guid: 0ceb7a0fab62ffe4c8c9220209ae013c, type: 3}
      propertyPath: m_LocalRotation.w
      value: 1
      objectReference: {fileID: 0}
    - target: {fileID: 474662, guid: 0ceb7a0fab62ffe4c8c9220209ae013c, type: 3}
      propertyPath: m_LocalRotation.x
      value: 0
      objectReference: {fileID: 0}
    - target: {fileID: 474662, guid: 0ceb7a0fab62ffe4c8c9220209ae013c, type: 3}
      propertyPath: m_LocalRotation.y
      value: 0
      objectReference: {fileID: 0}
    - target: {fileID: 474662, guid: 0ceb7a0fab62ffe4c8c9220209ae013c, type: 3}
      propertyPath: m_LocalRotation.z
      value: 0
      objectReference: {fileID: 0}
    m_RemovedComponents: []
  m_SourcePrefab: {fileID: 100100000, guid: 0ceb7a0fab62ffe4c8c9220209ae013c, type: 3}
--- !u!1001 &924588630
PrefabInstance:
  m_ObjectHideFlags: 0
  serializedVersion: 2
  m_Modification:
    m_TransformParent: {fileID: 0}
    m_Modifications:
    - target: {fileID: 412824, guid: d64f40bf7e223c14894e18fe15958fa3, type: 3}
      propertyPath: m_RootOrder
      value: 19
      objectReference: {fileID: 0}
    - target: {fileID: 412824, guid: d64f40bf7e223c14894e18fe15958fa3, type: 3}
      propertyPath: m_LocalPosition.x
      value: -1.23000002
      objectReference: {fileID: 0}
    - target: {fileID: 412824, guid: d64f40bf7e223c14894e18fe15958fa3, type: 3}
      propertyPath: m_LocalPosition.y
      value: 0
      objectReference: {fileID: 0}
    - target: {fileID: 412824, guid: d64f40bf7e223c14894e18fe15958fa3, type: 3}
      propertyPath: m_LocalPosition.z
      value: 1.82000005
      objectReference: {fileID: 0}
    - target: {fileID: 412824, guid: d64f40bf7e223c14894e18fe15958fa3, type: 3}
      propertyPath: m_LocalRotation.w
      value: 1
      objectReference: {fileID: 0}
    - target: {fileID: 412824, guid: d64f40bf7e223c14894e18fe15958fa3, type: 3}
      propertyPath: m_LocalRotation.x
      value: 0
      objectReference: {fileID: 0}
    - target: {fileID: 412824, guid: d64f40bf7e223c14894e18fe15958fa3, type: 3}
      propertyPath: m_LocalRotation.y
      value: 0
      objectReference: {fileID: 0}
    - target: {fileID: 412824, guid: d64f40bf7e223c14894e18fe15958fa3, type: 3}
      propertyPath: m_LocalRotation.z
      value: 0
      objectReference: {fileID: 0}
    m_RemovedComponents: []
  m_SourcePrefab: {fileID: 100100000, guid: d64f40bf7e223c14894e18fe15958fa3, type: 3}
--- !u!1001 &935664889
PrefabInstance:
  m_ObjectHideFlags: 0
  serializedVersion: 2
  m_Modification:
    m_TransformParent: {fileID: 0}
    m_Modifications:
    - target: {fileID: 497644, guid: 2d065c8c4ae1e8547b898e804918c86e, type: 3}
      propertyPath: m_RootOrder
      value: 26
      objectReference: {fileID: 0}
    - target: {fileID: 497644, guid: 2d065c8c4ae1e8547b898e804918c86e, type: 3}
      propertyPath: m_LocalPosition.x
      value: .400000006
      objectReference: {fileID: 0}
    - target: {fileID: 497644, guid: 2d065c8c4ae1e8547b898e804918c86e, type: 3}
      propertyPath: m_LocalPosition.y
      value: 0
      objectReference: {fileID: 0}
    - target: {fileID: 497644, guid: 2d065c8c4ae1e8547b898e804918c86e, type: 3}
      propertyPath: m_LocalPosition.z
      value: 1.82000005
      objectReference: {fileID: 0}
    - target: {fileID: 497644, guid: 2d065c8c4ae1e8547b898e804918c86e, type: 3}
      propertyPath: m_LocalRotation.w
      value: 1
      objectReference: {fileID: 0}
    - target: {fileID: 497644, guid: 2d065c8c4ae1e8547b898e804918c86e, type: 3}
      propertyPath: m_LocalRotation.x
      value: 0
      objectReference: {fileID: 0}
    - target: {fileID: 497644, guid: 2d065c8c4ae1e8547b898e804918c86e, type: 3}
      propertyPath: m_LocalRotation.y
      value: 0
      objectReference: {fileID: 0}
    - target: {fileID: 497644, guid: 2d065c8c4ae1e8547b898e804918c86e, type: 3}
      propertyPath: m_LocalRotation.z
      value: 0
      objectReference: {fileID: 0}
    m_RemovedComponents: []
  m_SourcePrefab: {fileID: 100100000, guid: 2d065c8c4ae1e8547b898e804918c86e, type: 3}
--- !u!1 &951474169
GameObject:
  m_ObjectHideFlags: 0
  m_CorrespondingSourceObject: {fileID: 0}
  m_PrefabInstance: {fileID: 0}
  m_PrefabAsset: {fileID: 0}
  serializedVersion: 6
  m_Component:
  - component: {fileID: 951474171}
  - component: {fileID: 951474170}
  m_Layer: 0
  m_Name: Directional Light
  m_TagString: Untagged
  m_Icon: {fileID: 0}
  m_NavMeshLayer: 0
  m_StaticEditorFlags: 0
  m_IsActive: 1
--- !u!108 &951474170
Light:
  m_ObjectHideFlags: 0
  m_CorrespondingSourceObject: {fileID: 0}
  m_PrefabInstance: {fileID: 0}
  m_PrefabAsset: {fileID: 0}
  m_GameObject: {fileID: 951474169}
  m_Enabled: 1
  serializedVersion: 10
  m_Type: 1
  m_Shape: 0
  m_Color: {r: 1, g: 0.95686275, b: 0.8392157, a: 1}
  m_Intensity: 1
  m_Range: 10
  m_SpotAngle: 30
  m_InnerSpotAngle: 21.80208
  m_CookieSize: 10
  m_Shadows:
    m_Type: 2
    m_Resolution: -1
    m_CustomResolution: -1
    m_Strength: 1
    m_Bias: 0.05
    m_NormalBias: 0.4
    m_NearPlane: 0.2
    m_CullingMatrixOverride:
      e00: 1
      e01: 0
      e02: 0
      e03: 0
      e10: 0
      e11: 1
      e12: 0
      e13: 0
      e20: 0
      e21: 0
      e22: 1
      e23: 0
      e30: 0
      e31: 0
      e32: 0
      e33: 1
    m_UseCullingMatrixOverride: 0
  m_Cookie: {fileID: 0}
  m_DrawHalo: 0
  m_Flare: {fileID: 0}
  m_RenderMode: 0
  m_CullingMask:
    serializedVersion: 2
    m_Bits: 4294967295
  m_RenderingLayerMask: 1
  m_Lightmapping: 4
  m_LightShadowCasterMode: 0
  m_AreaSize: {x: 1, y: 1}
  m_BounceIntensity: 1
  m_ColorTemperature: 6570
  m_UseColorTemperature: 0
  m_BoundingSphereOverride: {x: 0, y: 0, z: 0, w: 0}
  m_UseBoundingSphereOverride: 0
  m_UseViewFrustumForShadowCasterCull: 1
  m_ShadowRadius: 0
  m_ShadowAngle: 0
--- !u!4 &951474171
Transform:
  m_ObjectHideFlags: 0
  m_CorrespondingSourceObject: {fileID: 0}
  m_PrefabInstance: {fileID: 0}
  m_PrefabAsset: {fileID: 0}
  m_GameObject: {fileID: 951474169}
  m_LocalRotation: {x: 0.40821794, y: -0.23456973, z: 0.109381676, w: 0.87542605}
  m_LocalPosition: {x: 0, y: 3, z: 0}
  m_LocalScale: {x: 1, y: 1, z: 1}
  m_Children: []
  m_Father: {fileID: 0}
  m_RootOrder: 12
  m_LocalEulerAnglesHint: {x: 0, y: 0, z: 0}
--- !u!1001 &974368497
PrefabInstance:
  m_ObjectHideFlags: 0
  serializedVersion: 2
  m_Modification:
    m_TransformParent: {fileID: 0}
    m_Modifications:
    - target: {fileID: 458558, guid: 534b7b0f42c1d304299f3f3762536fb4, type: 3}
      propertyPath: m_RootOrder
      value: 9
      objectReference: {fileID: 0}
    - target: {fileID: 458558, guid: 534b7b0f42c1d304299f3f3762536fb4, type: 3}
      propertyPath: m_LocalPosition.x
      value: 4.21999979
      objectReference: {fileID: 0}
    - target: {fileID: 458558, guid: 534b7b0f42c1d304299f3f3762536fb4, type: 3}
      propertyPath: m_LocalPosition.y
      value: 0
      objectReference: {fileID: 0}
    - target: {fileID: 458558, guid: 534b7b0f42c1d304299f3f3762536fb4, type: 3}
      propertyPath: m_LocalPosition.z
      value: -2.02999997
      objectReference: {fileID: 0}
    - target: {fileID: 458558, guid: 534b7b0f42c1d304299f3f3762536fb4, type: 3}
      propertyPath: m_LocalRotation.w
      value: 1
      objectReference: {fileID: 0}
    - target: {fileID: 458558, guid: 534b7b0f42c1d304299f3f3762536fb4, type: 3}
      propertyPath: m_LocalRotation.x
      value: 0
      objectReference: {fileID: 0}
    - target: {fileID: 458558, guid: 534b7b0f42c1d304299f3f3762536fb4, type: 3}
      propertyPath: m_LocalRotation.y
      value: 0
      objectReference: {fileID: 0}
    - target: {fileID: 458558, guid: 534b7b0f42c1d304299f3f3762536fb4, type: 3}
      propertyPath: m_LocalRotation.z
      value: 0
      objectReference: {fileID: 0}
    m_RemovedComponents: []
  m_SourcePrefab: {fileID: 100100000, guid: 534b7b0f42c1d304299f3f3762536fb4, type: 3}
--- !u!1001 &1049381642
PrefabInstance:
  m_ObjectHideFlags: 0
  serializedVersion: 2
  m_Modification:
    m_TransformParent: {fileID: 0}
    m_Modifications:
    - target: {fileID: 431210, guid: d4d17342014c96842ae633419b8f07a5, type: 3}
      propertyPath: m_RootOrder
      value: 5
      objectReference: {fileID: 0}
    - target: {fileID: 431210, guid: d4d17342014c96842ae633419b8f07a5, type: 3}
      propertyPath: m_LocalPosition.x
      value: -.00999999978
      objectReference: {fileID: 0}
    - target: {fileID: 431210, guid: d4d17342014c96842ae633419b8f07a5, type: 3}
      propertyPath: m_LocalPosition.y
      value: 0
      objectReference: {fileID: 0}
    - target: {fileID: 431210, guid: d4d17342014c96842ae633419b8f07a5, type: 3}
      propertyPath: m_LocalPosition.z
      value: 0
      objectReference: {fileID: 0}
    - target: {fileID: 431210, guid: d4d17342014c96842ae633419b8f07a5, type: 3}
      propertyPath: m_LocalRotation.w
      value: 1
      objectReference: {fileID: 0}
    - target: {fileID: 431210, guid: d4d17342014c96842ae633419b8f07a5, type: 3}
      propertyPath: m_LocalRotation.x
      value: 0
      objectReference: {fileID: 0}
    - target: {fileID: 431210, guid: d4d17342014c96842ae633419b8f07a5, type: 3}
      propertyPath: m_LocalRotation.y
      value: 0
      objectReference: {fileID: 0}
    - target: {fileID: 431210, guid: d4d17342014c96842ae633419b8f07a5, type: 3}
      propertyPath: m_LocalRotation.z
      value: 0
      objectReference: {fileID: 0}
    - target: {fileID: 9566230, guid: d4d17342014c96842ae633419b8f07a5, type: 3}
      propertyPath: m_Controller
      value: 
      objectReference: {fileID: 0}
    m_RemovedComponents: []
  m_SourcePrefab: {fileID: 100100000, guid: d4d17342014c96842ae633419b8f07a5, type: 3}
--- !u!1001 &1203538636
PrefabInstance:
  m_ObjectHideFlags: 0
  serializedVersion: 2
  m_Modification:
    m_TransformParent: {fileID: 0}
    m_Modifications:
    - target: {fileID: 495996, guid: 5ad43ee3802caa04ab0928a13c462a56, type: 3}
      propertyPath: m_RootOrder
      value: 7
      objectReference: {fileID: 0}
    - target: {fileID: 495996, guid: 5ad43ee3802caa04ab0928a13c462a56, type: 3}
      propertyPath: m_LocalPosition.x
      value: -4.21000004
      objectReference: {fileID: 0}
    - target: {fileID: 495996, guid: 5ad43ee3802caa04ab0928a13c462a56, type: 3}
      propertyPath: m_LocalPosition.y
      value: 0
      objectReference: {fileID: 0}
    - target: {fileID: 495996, guid: 5ad43ee3802caa04ab0928a13c462a56, type: 3}
      propertyPath: m_LocalPosition.z
      value: -2.02999997
      objectReference: {fileID: 0}
    - target: {fileID: 495996, guid: 5ad43ee3802caa04ab0928a13c462a56, type: 3}
      propertyPath: m_LocalRotation.w
      value: 1
      objectReference: {fileID: 0}
    - target: {fileID: 495996, guid: 5ad43ee3802caa04ab0928a13c462a56, type: 3}
      propertyPath: m_LocalRotation.x
      value: 0
      objectReference: {fileID: 0}
    - target: {fileID: 495996, guid: 5ad43ee3802caa04ab0928a13c462a56, type: 3}
      propertyPath: m_LocalRotation.y
      value: 0
      objectReference: {fileID: 0}
    - target: {fileID: 495996, guid: 5ad43ee3802caa04ab0928a13c462a56, type: 3}
      propertyPath: m_LocalRotation.z
      value: 0
      objectReference: {fileID: 0}
    m_RemovedComponents: []
  m_SourcePrefab: {fileID: 100100000, guid: 5ad43ee3802caa04ab0928a13c462a56, type: 3}
--- !u!1001 &1303895286
PrefabInstance:
  m_ObjectHideFlags: 0
  serializedVersion: 2
  m_Modification:
    m_TransformParent: {fileID: 0}
    m_Modifications:
    - target: {fileID: 449668, guid: 287641c6816a5d6439b3abd4dbe279ed, type: 3}
      propertyPath: m_RootOrder
      value: 27
      objectReference: {fileID: 0}
    - target: {fileID: 449668, guid: 287641c6816a5d6439b3abd4dbe279ed, type: 3}
      propertyPath: m_LocalPosition.x
      value: 2.33999991
      objectReference: {fileID: 0}
    - target: {fileID: 449668, guid: 287641c6816a5d6439b3abd4dbe279ed, type: 3}
      propertyPath: m_LocalPosition.y
      value: 0
      objectReference: {fileID: 0}
    - target: {fileID: 449668, guid: 287641c6816a5d6439b3abd4dbe279ed, type: 3}
      propertyPath: m_LocalPosition.z
      value: 1.82000005
      objectReference: {fileID: 0}
    - target: {fileID: 449668, guid: 287641c6816a5d6439b3abd4dbe279ed, type: 3}
      propertyPath: m_LocalRotation.w
      value: 1
      objectReference: {fileID: 0}
    - target: {fileID: 449668, guid: 287641c6816a5d6439b3abd4dbe279ed, type: 3}
      propertyPath: m_LocalRotation.x
      value: 0
      objectReference: {fileID: 0}
    - target: {fileID: 449668, guid: 287641c6816a5d6439b3abd4dbe279ed, type: 3}
      propertyPath: m_LocalRotation.y
      value: 0
      objectReference: {fileID: 0}
    - target: {fileID: 449668, guid: 287641c6816a5d6439b3abd4dbe279ed, type: 3}
      propertyPath: m_LocalRotation.z
      value: 0
      objectReference: {fileID: 0}
    m_RemovedComponents: []
  m_SourcePrefab: {fileID: 100100000, guid: 287641c6816a5d6439b3abd4dbe279ed, type: 3}
--- !u!1001 &1330084368
PrefabInstance:
  m_ObjectHideFlags: 0
  serializedVersion: 2
  m_Modification:
    m_TransformParent: {fileID: 0}
    m_Modifications:
    - target: {fileID: 486078, guid: b6c1c2a5e606d5f49a3095eca864188b, type: 3}
      propertyPath: m_RootOrder
      value: 24
      objectReference: {fileID: 0}
    - target: {fileID: 486078, guid: b6c1c2a5e606d5f49a3095eca864188b, type: 3}
      propertyPath: m_LocalPosition.x
      value: 3.67000008
      objectReference: {fileID: 0}
    - target: {fileID: 486078, guid: b6c1c2a5e606d5f49a3095eca864188b, type: 3}
      propertyPath: m_LocalPosition.y
      value: 0
      objectReference: {fileID: 0}
    - target: {fileID: 486078, guid: b6c1c2a5e606d5f49a3095eca864188b, type: 3}
      propertyPath: m_LocalPosition.z
      value: 1.82000005
      objectReference: {fileID: 0}
    - target: {fileID: 486078, guid: b6c1c2a5e606d5f49a3095eca864188b, type: 3}
      propertyPath: m_LocalRotation.w
      value: 1
      objectReference: {fileID: 0}
    - target: {fileID: 486078, guid: b6c1c2a5e606d5f49a3095eca864188b, type: 3}
      propertyPath: m_LocalRotation.x
      value: 0
      objectReference: {fileID: 0}
    - target: {fileID: 486078, guid: b6c1c2a5e606d5f49a3095eca864188b, type: 3}
      propertyPath: m_LocalRotation.y
      value: 0
      objectReference: {fileID: 0}
    - target: {fileID: 486078, guid: b6c1c2a5e606d5f49a3095eca864188b, type: 3}
      propertyPath: m_LocalRotation.z
      value: 0
      objectReference: {fileID: 0}
    m_RemovedComponents: []
  m_SourcePrefab: {fileID: 100100000, guid: b6c1c2a5e606d5f49a3095eca864188b, type: 3}
--- !u!1001 &1381233031
PrefabInstance:
  m_ObjectHideFlags: 0
  serializedVersion: 2
  m_Modification:
    m_TransformParent: {fileID: 0}
    m_Modifications:
    - target: {fileID: 440554, guid: 9e311f4d0c272f44ea83aed3c3b15c40, type: 3}
      propertyPath: m_RootOrder
      value: 18
      objectReference: {fileID: 0}
    - target: {fileID: 440554, guid: 9e311f4d0c272f44ea83aed3c3b15c40, type: 3}
      propertyPath: m_LocalPosition.x
      value: -2.43000007
      objectReference: {fileID: 0}
    - target: {fileID: 440554, guid: 9e311f4d0c272f44ea83aed3c3b15c40, type: 3}
      propertyPath: m_LocalPosition.y
      value: 0
      objectReference: {fileID: 0}
    - target: {fileID: 440554, guid: 9e311f4d0c272f44ea83aed3c3b15c40, type: 3}
      propertyPath: m_LocalPosition.z
      value: 1.82000005
      objectReference: {fileID: 0}
    - target: {fileID: 440554, guid: 9e311f4d0c272f44ea83aed3c3b15c40, type: 3}
      propertyPath: m_LocalRotation.w
      value: 1
      objectReference: {fileID: 0}
    - target: {fileID: 440554, guid: 9e311f4d0c272f44ea83aed3c3b15c40, type: 3}
      propertyPath: m_LocalRotation.x
      value: 0
      objectReference: {fileID: 0}
    - target: {fileID: 440554, guid: 9e311f4d0c272f44ea83aed3c3b15c40, type: 3}
      propertyPath: m_LocalRotation.y
      value: 0
      objectReference: {fileID: 0}
    - target: {fileID: 440554, guid: 9e311f4d0c272f44ea83aed3c3b15c40, type: 3}
      propertyPath: m_LocalRotation.z
      value: 0
      objectReference: {fileID: 0}
    m_RemovedComponents: []
  m_SourcePrefab: {fileID: 100100000, guid: 9e311f4d0c272f44ea83aed3c3b15c40, type: 3}
--- !u!1001 &1403167945
PrefabInstance:
  m_ObjectHideFlags: 0
  serializedVersion: 2
  m_Modification:
    m_TransformParent: {fileID: 0}
    m_Modifications:
    - target: {fileID: 478730, guid: 29e0acc4764696c4198aa7ffda2fdf48, type: 3}
      propertyPath: m_RootOrder
      value: 3
      objectReference: {fileID: 0}
    - target: {fileID: 478730, guid: 29e0acc4764696c4198aa7ffda2fdf48, type: 3}
      propertyPath: m_LocalPosition.x
      value: -4.14799976
      objectReference: {fileID: 0}
    - target: {fileID: 478730, guid: 29e0acc4764696c4198aa7ffda2fdf48, type: 3}
      propertyPath: m_LocalPosition.y
      value: 0
      objectReference: {fileID: 0}
    - target: {fileID: 478730, guid: 29e0acc4764696c4198aa7ffda2fdf48, type: 3}
      propertyPath: m_LocalPosition.z
      value: 0
      objectReference: {fileID: 0}
    - target: {fileID: 478730, guid: 29e0acc4764696c4198aa7ffda2fdf48, type: 3}
      propertyPath: m_LocalRotation.w
      value: 1
      objectReference: {fileID: 0}
    - target: {fileID: 478730, guid: 29e0acc4764696c4198aa7ffda2fdf48, type: 3}
      propertyPath: m_LocalRotation.x
      value: 0
      objectReference: {fileID: 0}
    - target: {fileID: 478730, guid: 29e0acc4764696c4198aa7ffda2fdf48, type: 3}
      propertyPath: m_LocalRotation.y
      value: 0
      objectReference: {fileID: 0}
    - target: {fileID: 478730, guid: 29e0acc4764696c4198aa7ffda2fdf48, type: 3}
      propertyPath: m_LocalRotation.z
      value: 0
      objectReference: {fileID: 0}
    m_RemovedComponents: []
  m_SourcePrefab: {fileID: 100100000, guid: 29e0acc4764696c4198aa7ffda2fdf48, type: 3}
--- !u!1001 &1479806982
PrefabInstance:
  m_ObjectHideFlags: 0
  serializedVersion: 2
  m_Modification:
    m_TransformParent: {fileID: 0}
    m_Modifications:
    - target: {fileID: 491780, guid: e1e83d50907dd454ebd8e9adf4305361, type: 3}
      propertyPath: m_RootOrder
      value: 25
      objectReference: {fileID: 0}
    - target: {fileID: 491780, guid: e1e83d50907dd454ebd8e9adf4305361, type: 3}
      propertyPath: m_LocalPosition.x
      value: -.209999993
      objectReference: {fileID: 0}
    - target: {fileID: 491780, guid: e1e83d50907dd454ebd8e9adf4305361, type: 3}
      propertyPath: m_LocalPosition.y
      value: 0
      objectReference: {fileID: 0}
    - target: {fileID: 491780, guid: e1e83d50907dd454ebd8e9adf4305361, type: 3}
      propertyPath: m_LocalPosition.z
      value: 1.82000005
      objectReference: {fileID: 0}
    - target: {fileID: 491780, guid: e1e83d50907dd454ebd8e9adf4305361, type: 3}
      propertyPath: m_LocalRotation.w
      value: 1
      objectReference: {fileID: 0}
    - target: {fileID: 491780, guid: e1e83d50907dd454ebd8e9adf4305361, type: 3}
      propertyPath: m_LocalRotation.x
      value: 0
      objectReference: {fileID: 0}
    - target: {fileID: 491780, guid: e1e83d50907dd454ebd8e9adf4305361, type: 3}
      propertyPath: m_LocalRotation.y
      value: 0
      objectReference: {fileID: 0}
    - target: {fileID: 491780, guid: e1e83d50907dd454ebd8e9adf4305361, type: 3}
      propertyPath: m_LocalRotation.z
      value: 0
      objectReference: {fileID: 0}
    m_RemovedComponents: []
  m_SourcePrefab: {fileID: 100100000, guid: e1e83d50907dd454ebd8e9adf4305361, type: 3}
--- !u!1001 &1543554202
PrefabInstance:
  m_ObjectHideFlags: 0
  serializedVersion: 2
  m_Modification:
    m_TransformParent: {fileID: 0}
    m_Modifications:
    - target: {fileID: 420798, guid: 1006941873f215d46b09517732f49978, type: 3}
      propertyPath: m_RootOrder
      value: 22
      objectReference: {fileID: 0}
    - target: {fileID: 420798, guid: 1006941873f215d46b09517732f49978, type: 3}
      propertyPath: m_LocalPosition.x
      value: .150000006
      objectReference: {fileID: 0}
    - target: {fileID: 420798, guid: 1006941873f215d46b09517732f49978, type: 3}
      propertyPath: m_LocalPosition.y
      value: 0
      objectReference: {fileID: 0}
    - target: {fileID: 420798, guid: 1006941873f215d46b09517732f49978, type: 3}
      propertyPath: m_LocalPosition.z
      value: 1.82000005
      objectReference: {fileID: 0}
    - target: {fileID: 420798, guid: 1006941873f215d46b09517732f49978, type: 3}
      propertyPath: m_LocalRotation.w
      value: 1
      objectReference: {fileID: 0}
    - target: {fileID: 420798, guid: 1006941873f215d46b09517732f49978, type: 3}
      propertyPath: m_LocalRotation.x
      value: 0
      objectReference: {fileID: 0}
    - target: {fileID: 420798, guid: 1006941873f215d46b09517732f49978, type: 3}
      propertyPath: m_LocalRotation.y
      value: 0
      objectReference: {fileID: 0}
    - target: {fileID: 420798, guid: 1006941873f215d46b09517732f49978, type: 3}
      propertyPath: m_LocalRotation.z
      value: 0
      objectReference: {fileID: 0}
    m_RemovedComponents: []
  m_SourcePrefab: {fileID: 100100000, guid: 1006941873f215d46b09517732f49978, type: 3}
--- !u!1001 &1569016988
PrefabInstance:
  m_ObjectHideFlags: 0
  serializedVersion: 2
  m_Modification:
    m_TransformParent: {fileID: 0}
    m_Modifications:
    - target: {fileID: 455556, guid: aea27ca7a35042c419065833e8daf224, type: 3}
      propertyPath: m_RootOrder
      value: 10
      objectReference: {fileID: 0}
    - target: {fileID: 455556, guid: aea27ca7a35042c419065833e8daf224, type: 3}
      propertyPath: m_LocalPosition.x
      value: -2.1099999
      objectReference: {fileID: 0}
    - target: {fileID: 455556, guid: aea27ca7a35042c419065833e8daf224, type: 3}
      propertyPath: m_LocalPosition.y
      value: 0
      objectReference: {fileID: 0}
    - target: {fileID: 455556, guid: aea27ca7a35042c419065833e8daf224, type: 3}
      propertyPath: m_LocalPosition.z
      value: -2.02999997
      objectReference: {fileID: 0}
    - target: {fileID: 455556, guid: aea27ca7a35042c419065833e8daf224, type: 3}
      propertyPath: m_LocalRotation.w
      value: 1
      objectReference: {fileID: 0}
    - target: {fileID: 455556, guid: aea27ca7a35042c419065833e8daf224, type: 3}
      propertyPath: m_LocalRotation.x
      value: 0
      objectReference: {fileID: 0}
    - target: {fileID: 455556, guid: aea27ca7a35042c419065833e8daf224, type: 3}
      propertyPath: m_LocalRotation.y
      value: 0
      objectReference: {fileID: 0}
    - target: {fileID: 455556, guid: aea27ca7a35042c419065833e8daf224, type: 3}
      propertyPath: m_LocalRotation.z
      value: 0
      objectReference: {fileID: 0}
    m_RemovedComponents: []
  m_SourcePrefab: {fileID: 100100000, guid: aea27ca7a35042c419065833e8daf224, type: 3}
--- !u!1001 &1714747274
PrefabInstance:
  m_ObjectHideFlags: 0
  serializedVersion: 2
  m_Modification:
    m_TransformParent: {fileID: 0}
    m_Modifications:
    - target: {fileID: 437234, guid: 74472bc2f47a23b41aa71c9d0d2c408f, type: 3}
      propertyPath: m_RootOrder
      value: 14
      objectReference: {fileID: 0}
    - target: {fileID: 437234, guid: 74472bc2f47a23b41aa71c9d0d2c408f, type: 3}
      propertyPath: m_LocalPosition.x
      value: 4.51999998
      objectReference: {fileID: 0}
    - target: {fileID: 437234, guid: 74472bc2f47a23b41aa71c9d0d2c408f, type: 3}
      propertyPath: m_LocalPosition.y
      value: 0
      objectReference: {fileID: 0}
    - target: {fileID: 437234, guid: 74472bc2f47a23b41aa71c9d0d2c408f, type: 3}
      propertyPath: m_LocalPosition.z
      value: 1.82000005
      objectReference: {fileID: 0}
    - target: {fileID: 437234, guid: 74472bc2f47a23b41aa71c9d0d2c408f, type: 3}
      propertyPath: m_LocalRotation.w
      value: 1
      objectReference: {fileID: 0}
    - target: {fileID: 437234, guid: 74472bc2f47a23b41aa71c9d0d2c408f, type: 3}
      propertyPath: m_LocalRotation.x
      value: 0
      objectReference: {fileID: 0}
    - target: {fileID: 437234, guid: 74472bc2f47a23b41aa71c9d0d2c408f, type: 3}
      propertyPath: m_LocalRotation.y
      value: 0
      objectReference: {fileID: 0}
    - target: {fileID: 437234, guid: 74472bc2f47a23b41aa71c9d0d2c408f, type: 3}
      propertyPath: m_LocalRotation.z
      value: 0
      objectReference: {fileID: 0}
    m_RemovedComponents: []
  m_SourcePrefab: {fileID: 100100000, guid: 74472bc2f47a23b41aa71c9d0d2c408f, type: 3}
--- !u!1001 &1775950130
PrefabInstance:
  m_ObjectHideFlags: 0
  serializedVersion: 2
  m_Modification:
    m_TransformParent: {fileID: 0}
    m_Modifications:
    - target: {fileID: 438298, guid: c0ad510f3323b234e9fb6ba5b6f4a6bf, type: 3}
      propertyPath: m_RootOrder
      value: 20
      objectReference: {fileID: 0}
    - target: {fileID: 438298, guid: c0ad510f3323b234e9fb6ba5b6f4a6bf, type: 3}
      propertyPath: m_LocalPosition.x
      value: -1.92999995
      objectReference: {fileID: 0}
    - target: {fileID: 438298, guid: c0ad510f3323b234e9fb6ba5b6f4a6bf, type: 3}
      propertyPath: m_LocalPosition.y
      value: 0
      objectReference: {fileID: 0}
    - target: {fileID: 438298, guid: c0ad510f3323b234e9fb6ba5b6f4a6bf, type: 3}
      propertyPath: m_LocalPosition.z
      value: 1.82000005
      objectReference: {fileID: 0}
    - target: {fileID: 438298, guid: c0ad510f3323b234e9fb6ba5b6f4a6bf, type: 3}
      propertyPath: m_LocalRotation.w
      value: 1
      objectReference: {fileID: 0}
    - target: {fileID: 438298, guid: c0ad510f3323b234e9fb6ba5b6f4a6bf, type: 3}
      propertyPath: m_LocalRotation.x
      value: 0
      objectReference: {fileID: 0}
    - target: {fileID: 438298, guid: c0ad510f3323b234e9fb6ba5b6f4a6bf, type: 3}
      propertyPath: m_LocalRotation.y
      value: 0
      objectReference: {fileID: 0}
    - target: {fileID: 438298, guid: c0ad510f3323b234e9fb6ba5b6f4a6bf, type: 3}
      propertyPath: m_LocalRotation.z
      value: 0
      objectReference: {fileID: 0}
    m_RemovedComponents: []
  m_SourcePrefab: {fileID: 100100000, guid: c0ad510f3323b234e9fb6ba5b6f4a6bf, type: 3}
--- !u!1001 &1978401715
PrefabInstance:
  m_ObjectHideFlags: 0
  serializedVersion: 2
  m_Modification:
    m_TransformParent: {fileID: 0}
    m_Modifications:
    - target: {fileID: 482130, guid: f7e586317327fe240bef5a82944f49c2, type: 3}
      propertyPath: m_RootOrder
      value: 0
      objectReference: {fileID: 0}
    - target: {fileID: 482130, guid: f7e586317327fe240bef5a82944f49c2, type: 3}
      propertyPath: m_LocalPosition.x
      value: 2.05599999
      objectReference: {fileID: 0}
    - target: {fileID: 482130, guid: f7e586317327fe240bef5a82944f49c2, type: 3}
      propertyPath: m_LocalPosition.y
      value: 0
      objectReference: {fileID: 0}
    - target: {fileID: 482130, guid: f7e586317327fe240bef5a82944f49c2, type: 3}
      propertyPath: m_LocalPosition.z
      value: 0
      objectReference: {fileID: 0}
    - target: {fileID: 482130, guid: f7e586317327fe240bef5a82944f49c2, type: 3}
      propertyPath: m_LocalRotation.w
      value: 1
      objectReference: {fileID: 0}
    - target: {fileID: 482130, guid: f7e586317327fe240bef5a82944f49c2, type: 3}
      propertyPath: m_LocalRotation.x
      value: 0
      objectReference: {fileID: 0}
    - target: {fileID: 482130, guid: f7e586317327fe240bef5a82944f49c2, type: 3}
      propertyPath: m_LocalRotation.y
      value: 0
      objectReference: {fileID: 0}
    - target: {fileID: 482130, guid: f7e586317327fe240bef5a82944f49c2, type: 3}
      propertyPath: m_LocalRotation.z
      value: 0
      objectReference: {fileID: 0}
    - target: {fileID: 9520156, guid: f7e586317327fe240bef5a82944f49c2, type: 3}
      propertyPath: m_Controller
      value: 
      objectReference: {fileID: 0}
    m_RemovedComponents: []
  m_SourcePrefab: {fileID: 100100000, guid: f7e586317327fe240bef5a82944f49c2, type: 3}
--- !u!1001 &1988902149
PrefabInstance:
  m_ObjectHideFlags: 0
  serializedVersion: 2
  m_Modification:
    m_TransformParent: {fileID: 0}
    m_Modifications:
    - target: {fileID: 403778, guid: a72fcdd51f52f5146b54b8faccf63756, type: 3}
      propertyPath: m_RootOrder
      value: 15
      objectReference: {fileID: 0}
    - target: {fileID: 403778, guid: a72fcdd51f52f5146b54b8faccf63756, type: 3}
      propertyPath: m_LocalPosition.x
      value: -2.8900001
      objectReference: {fileID: 0}
    - target: {fileID: 403778, guid: a72fcdd51f52f5146b54b8faccf63756, type: 3}
      propertyPath: m_LocalPosition.y
      value: 0
      objectReference: {fileID: 0}
    - target: {fileID: 403778, guid: a72fcdd51f52f5146b54b8faccf63756, type: 3}
      propertyPath: m_LocalPosition.z
      value: 1.82000005
      objectReference: {fileID: 0}
    - target: {fileID: 403778, guid: a72fcdd51f52f5146b54b8faccf63756, type: 3}
      propertyPath: m_LocalRotation.w
      value: 1
      objectReference: {fileID: 0}
    - target: {fileID: 403778, guid: a72fcdd51f52f5146b54b8faccf63756, type: 3}
      propertyPath: m_LocalRotation.x
      value: 0
      objectReference: {fileID: 0}
    - target: {fileID: 403778, guid: a72fcdd51f52f5146b54b8faccf63756, type: 3}
      propertyPath: m_LocalRotation.y
      value: 0
      objectReference: {fileID: 0}
    - target: {fileID: 403778, guid: a72fcdd51f52f5146b54b8faccf63756, type: 3}
      propertyPath: m_LocalRotation.z
      value: 0
      objectReference: {fileID: 0}
    m_RemovedComponents: []
  m_SourcePrefab: {fileID: 100100000, guid: a72fcdd51f52f5146b54b8faccf63756, type: 3}
