%YAML 1.1
%TAG !u! tag:unity3d.com,2011:
--- !u!181963792 &2655988077585873504
Preset:
  m_ObjectHideFlags: 0
  m_CorrespondingSourceObject: {fileID: 0}
  m_PrefabInstance: {fileID: 0}
  m_PrefabAsset: {fileID: 0}
  m_Name: InputManager
  m_TargetType:
    m_NativeTypeID: 13
    m_ManagedTypePPtr: {fileID: 0}
    m_ManagedTypeFallback: 
  m_Properties:
  - target: {fileID: 0}
    propertyPath: m_Axes.Array.size
    value: 18
    objectReference: {fileID: 0}
  - target: {fileID: 0}
    propertyPath: m_Axes.Array.data[0].m_Name
    value: P1LeftStickX
    objectReference: {fileID: 0}
  - target: {fileID: 0}
    propertyPath: m_Axes.Array.data[0].descriptiveName
    value: 
    objectReference: {fileID: 0}
  - target: {fileID: 0}
    propertyPath: m_Axes.Array.data[0].descriptiveNegativeName
    value: 
    objectReference: {fileID: 0}
  - target: {fileID: 0}
    propertyPath: m_Axes.Array.data[0].negativeButton
    value: 
    objectReference: {fileID: 0}
  - target: {fileID: 0}
    propertyPath: m_Axes.Array.data[0].positiveButton
    value: 
    objectReference: {fileID: 0}
  - target: {fileID: 0}
    propertyPath: m_Axes.Array.data[0].altNegativeButton
    value: 
    objectReference: {fileID: 0}
  - target: {fileID: 0}
    propertyPath: m_Axes.Array.data[0].altPositiveButton
    value: 
    objectReference: {fileID: 0}
  - target: {fileID: 0}
    propertyPath: m_Axes.Array.data[0].gravity
    value: 0
    objectReference: {fileID: 0}
  - target: {fileID: 0}
    propertyPath: m_Axes.Array.data[0].dead
    value: 0.15
    objectReference: {fileID: 0}
  - target: {fileID: 0}
    propertyPath: m_Axes.Array.data[0].sensitivity
    value: 1
    objectReference: {fileID: 0}
  - target: {fileID: 0}
    propertyPath: m_Axes.Array.data[0].snap
    value: 0
    objectReference: {fileID: 0}
  - target: {fileID: 0}
    propertyPath: m_Axes.Array.data[0].invert
    value: 0
    objectReference: {fileID: 0}
  - target: {fileID: 0}
    propertyPath: m_Axes.Array.data[0].type
    value: 2
    objectReference: {fileID: 0}
  - target: {fileID: 0}
    propertyPath: m_Axes.Array.data[0].axis
    value: 0
    objectReference: {fileID: 0}
  - target: {fileID: 0}
    propertyPath: m_Axes.Array.data[0].joyNum
    value: 1
    objectReference: {fileID: 0}
  - target: {fileID: 0}
    propertyPath: m_Axes.Array.data[1].m_Name
    value: P1LeftStickY
    objectReference: {fileID: 0}
  - target: {fileID: 0}
    propertyPath: m_Axes.Array.data[1].descriptiveName
    value: 
    objectReference: {fileID: 0}
  - target: {fileID: 0}
    propertyPath: m_Axes.Array.data[1].descriptiveNegativeName
    value: 
    objectReference: {fileID: 0}
  - target: {fileID: 0}
    propertyPath: m_Axes.Array.data[1].negativeButton
    value: 
    objectReference: {fileID: 0}
  - target: {fileID: 0}
    propertyPath: m_Axes.Array.data[1].positiveButton
    value: 
    objectReference: {fileID: 0}
  - target: {fileID: 0}
    propertyPath: m_Axes.Array.data[1].altNegativeButton
    value: 
    objectReference: {fileID: 0}
  - target: {fileID: 0}
    propertyPath: m_Axes.Array.data[1].altPositiveButton
    value: 
    objectReference: {fileID: 0}
  - target: {fileID: 0}
    propertyPath: m_Axes.Array.data[1].gravity
    value: 0
    objectReference: {fileID: 0}
  - target: {fileID: 0}
    propertyPath: m_Axes.Array.data[1].dead
    value: 0.15
    objectReference: {fileID: 0}
  - target: {fileID: 0}
    propertyPath: m_Axes.Array.data[1].sensitivity
    value: 1
    objectReference: {fileID: 0}
  - target: {fileID: 0}
    propertyPath: m_Axes.Array.data[1].snap
    value: 0
    objectReference: {fileID: 0}
  - target: {fileID: 0}
    propertyPath: m_Axes.Array.data[1].invert
    value: 1
    objectReference: {fileID: 0}
  - target: {fileID: 0}
    propertyPath: m_Axes.Array.data[1].type
    value: 2
    objectReference: {fileID: 0}
  - target: {fileID: 0}
    propertyPath: m_Axes.Array.data[1].axis
    value: 1
    objectReference: {fileID: 0}
  - target: {fileID: 0}
    propertyPath: m_Axes.Array.data[1].joyNum
    value: 1
    objectReference: {fileID: 0}
  - target: {fileID: 0}
    propertyPath: m_Axes.Array.data[2].m_Name
    value: P1RightStickX
    objectReference: {fileID: 0}
  - target: {fileID: 0}
    propertyPath: m_Axes.Array.data[2].descriptiveName
    value: 
    objectReference: {fileID: 0}
  - target: {fileID: 0}
    propertyPath: m_Axes.Array.data[2].descriptiveNegativeName
    value: 
    objectReference: {fileID: 0}
  - target: {fileID: 0}
    propertyPath: m_Axes.Array.data[2].negativeButton
    value: 
    objectReference: {fileID: 0}
  - target: {fileID: 0}
    propertyPath: m_Axes.Array.data[2].positiveButton
    value: 
    objectReference: {fileID: 0}
  - target: {fileID: 0}
    propertyPath: m_Axes.Array.data[2].altNegativeButton
    value: 
    objectReference: {fileID: 0}
  - target: {fileID: 0}
    propertyPath: m_Axes.Array.data[2].altPositiveButton
    value: 
    objectReference: {fileID: 0}
  - target: {fileID: 0}
    propertyPath: m_Axes.Array.data[2].gravity
    value: 0
    objectReference: {fileID: 0}
  - target: {fileID: 0}
    propertyPath: m_Axes.Array.data[2].dead
    value: 0.15
    objectReference: {fileID: 0}
  - target: {fileID: 0}
    propertyPath: m_Axes.Array.data[2].sensitivity
    value: 1
    objectReference: {fileID: 0}
  - target: {fileID: 0}
    propertyPath: m_Axes.Array.data[2].snap
    value: 0
    objectReference: {fileID: 0}
  - target: {fileID: 0}
    propertyPath: m_Axes.Array.data[2].invert
    value: 0
    objectReference: {fileID: 0}
  - target: {fileID: 0}
    propertyPath: m_Axes.Array.data[2].type
    value: 2
    objectReference: {fileID: 0}
  - target: {fileID: 0}
    propertyPath: m_Axes.Array.data[2].axis
    value: 3
    objectReference: {fileID: 0}
  - target: {fileID: 0}
    propertyPath: m_Axes.Array.data[2].joyNum
    value: 1
    objectReference: {fileID: 0}
  - target: {fileID: 0}
    propertyPath: m_Axes.Array.data[3].m_Name
    value: P1RightStickY
    objectReference: {fileID: 0}
  - target: {fileID: 0}
    propertyPath: m_Axes.Array.data[3].descriptiveName
    value: 
    objectReference: {fileID: 0}
  - target: {fileID: 0}
    propertyPath: m_Axes.Array.data[3].descriptiveNegativeName
    value: 
    objectReference: {fileID: 0}
  - target: {fileID: 0}
    propertyPath: m_Axes.Array.data[3].negativeButton
    value: 
    objectReference: {fileID: 0}
  - target: {fileID: 0}
    propertyPath: m_Axes.Array.data[3].positiveButton
    value: 
    objectReference: {fileID: 0}
  - target: {fileID: 0}
    propertyPath: m_Axes.Array.data[3].altNegativeButton
    value: 
    objectReference: {fileID: 0}
  - target: {fileID: 0}
    propertyPath: m_Axes.Array.data[3].altPositiveButton
    value: 
    objectReference: {fileID: 0}
  - target: {fileID: 0}
    propertyPath: m_Axes.Array.data[3].gravity
    value: 0
    objectReference: {fileID: 0}
  - target: {fileID: 0}
    propertyPath: m_Axes.Array.data[3].dead
    value: 0.15
    objectReference: {fileID: 0}
  - target: {fileID: 0}
    propertyPath: m_Axes.Array.data[3].sensitivity
    value: 1
    objectReference: {fileID: 0}
  - target: {fileID: 0}
    propertyPath: m_Axes.Array.data[3].snap
    value: 0
    objectReference: {fileID: 0}
  - target: {fileID: 0}
    propertyPath: m_Axes.Array.data[3].invert
    value: 1
    objectReference: {fileID: 0}
  - target: {fileID: 0}
    propertyPath: m_Axes.Array.data[3].type
    value: 2
    objectReference: {fileID: 0}
  - target: {fileID: 0}
    propertyPath: m_Axes.Array.data[3].axis
    value: 4
    objectReference: {fileID: 0}
  - target: {fileID: 0}
    propertyPath: m_Axes.Array.data[3].joyNum
    value: 1
    objectReference: {fileID: 0}
  - target: {fileID: 0}
    propertyPath: m_Axes.Array.data[4].m_Name
    value: P1PadX
    objectReference: {fileID: 0}
  - target: {fileID: 0}
    propertyPath: m_Axes.Array.data[4].descriptiveName
    value: 
    objectReference: {fileID: 0}
  - target: {fileID: 0}
    propertyPath: m_Axes.Array.data[4].descriptiveNegativeName
    value: 
    objectReference: {fileID: 0}
  - target: {fileID: 0}
    propertyPath: m_Axes.Array.data[4].negativeButton
    value: 
    objectReference: {fileID: 0}
  - target: {fileID: 0}
    propertyPath: m_Axes.Array.data[4].positiveButton
    value: 
    objectReference: {fileID: 0}
  - target: {fileID: 0}
    propertyPath: m_Axes.Array.data[4].altNegativeButton
    value: 
    objectReference: {fileID: 0}
  - target: {fileID: 0}
    propertyPath: m_Axes.Array.data[4].altPositiveButton
    value: 
    objectReference: {fileID: 0}
  - target: {fileID: 0}
    propertyPath: m_Axes.Array.data[4].gravity
    value: 0
    objectReference: {fileID: 0}
  - target: {fileID: 0}
    propertyPath: m_Axes.Array.data[4].dead
    value: 0.15
    objectReference: {fileID: 0}
  - target: {fileID: 0}
    propertyPath: m_Axes.Array.data[4].sensitivity
    value: 1
    objectReference: {fileID: 0}
  - target: {fileID: 0}
    propertyPath: m_Axes.Array.data[4].snap
    value: 0
    objectReference: {fileID: 0}
  - target: {fileID: 0}
    propertyPath: m_Axes.Array.data[4].invert
    value: 0
    objectReference: {fileID: 0}
  - target: {fileID: 0}
    propertyPath: m_Axes.Array.data[4].type
    value: 2
    objectReference: {fileID: 0}
  - target: {fileID: 0}
    propertyPath: m_Axes.Array.data[4].axis
    value: 5
    objectReference: {fileID: 0}
  - target: {fileID: 0}
    propertyPath: m_Axes.Array.data[4].joyNum
    value: 1
    objectReference: {fileID: 0}
  - target: {fileID: 0}
    propertyPath: m_Axes.Array.data[5].m_Name
    value: P1PadY
    objectReference: {fileID: 0}
  - target: {fileID: 0}
    propertyPath: m_Axes.Array.data[5].descriptiveName
    value: 
    objectReference: {fileID: 0}
  - target: {fileID: 0}
    propertyPath: m_Axes.Array.data[5].descriptiveNegativeName
    value: 
    objectReference: {fileID: 0}
  - target: {fileID: 0}
    propertyPath: m_Axes.Array.data[5].negativeButton
    value: 
    objectReference: {fileID: 0}
  - target: {fileID: 0}
    propertyPath: m_Axes.Array.data[5].positiveButton
    value: 
    objectReference: {fileID: 0}
  - target: {fileID: 0}
    propertyPath: m_Axes.Array.data[5].altNegativeButton
    value: 
    objectReference: {fileID: 0}
  - target: {fileID: 0}
    propertyPath: m_Axes.Array.data[5].altPositiveButton
    value: 
    objectReference: {fileID: 0}
  - target: {fileID: 0}
    propertyPath: m_Axes.Array.data[5].gravity
    value: 0
    objectReference: {fileID: 0}
  - target: {fileID: 0}
    propertyPath: m_Axes.Array.data[5].dead
    value: 0.15
    objectReference: {fileID: 0}
  - target: {fileID: 0}
    propertyPath: m_Axes.Array.data[5].sensitivity
    value: 1
    objectReference: {fileID: 0}
  - target: {fileID: 0}
    propertyPath: m_Axes.Array.data[5].snap
    value: 0
    objectReference: {fileID: 0}
  - target: {fileID: 0}
    propertyPath: m_Axes.Array.data[5].invert
    value: 0
    objectReference: {fileID: 0}
  - target: {fileID: 0}
    propertyPath: m_Axes.Array.data[5].type
    value: 2
    objectReference: {fileID: 0}
  - target: {fileID: 0}
    propertyPath: m_Axes.Array.data[5].axis
    value: 6
    objectReference: {fileID: 0}
  - target: {fileID: 0}
    propertyPath: m_Axes.Array.data[5].joyNum
    value: 1
    objectReference: {fileID: 0}
  - target: {fileID: 0}
    propertyPath: m_Axes.Array.data[6].m_Name
    value: P1LeftTrigger
    objectReference: {fileID: 0}
  - target: {fileID: 0}
    propertyPath: m_Axes.Array.data[6].descriptiveName
    value: 
    objectReference: {fileID: 0}
  - target: {fileID: 0}
    propertyPath: m_Axes.Array.data[6].descriptiveNegativeName
    value: 
    objectReference: {fileID: 0}
  - target: {fileID: 0}
    propertyPath: m_Axes.Array.data[6].negativeButton
    value: 
    objectReference: {fileID: 0}
  - target: {fileID: 0}
    propertyPath: m_Axes.Array.data[6].positiveButton
    value: 
    objectReference: {fileID: 0}
  - target: {fileID: 0}
    propertyPath: m_Axes.Array.data[6].altNegativeButton
    value: 
    objectReference: {fileID: 0}
  - target: {fileID: 0}
    propertyPath: m_Axes.Array.data[6].altPositiveButton
    value: 
    objectReference: {fileID: 0}
  - target: {fileID: 0}
    propertyPath: m_Axes.Array.data[6].gravity
    value: 0
    objectReference: {fileID: 0}
  - target: {fileID: 0}
    propertyPath: m_Axes.Array.data[6].dead
    value: 0.15
    objectReference: {fileID: 0}
  - target: {fileID: 0}
    propertyPath: m_Axes.Array.data[6].sensitivity
    value: 1
    objectReference: {fileID: 0}
  - target: {fileID: 0}
    propertyPath: m_Axes.Array.data[6].snap
    value: 0
    objectReference: {fileID: 0}
  - target: {fileID: 0}
    propertyPath: m_Axes.Array.data[6].invert
    value: 0
    objectReference: {fileID: 0}
  - target: {fileID: 0}
    propertyPath: m_Axes.Array.data[6].type
    value: 2
    objectReference: {fileID: 0}
  - target: {fileID: 0}
    propertyPath: m_Axes.Array.data[6].axis
    value: 8
    objectReference: {fileID: 0}
  - target: {fileID: 0}
    propertyPath: m_Axes.Array.data[6].joyNum
    value: 1
    objectReference: {fileID: 0}
  - target: {fileID: 0}
    propertyPath: m_Axes.Array.data[7].m_Name
    value: P1RightTrigger
    objectReference: {fileID: 0}
  - target: {fileID: 0}
    propertyPath: m_Axes.Array.data[7].descriptiveName
    value: 
    objectReference: {fileID: 0}
  - target: {fileID: 0}
    propertyPath: m_Axes.Array.data[7].descriptiveNegativeName
    value: 
    objectReference: {fileID: 0}
  - target: {fileID: 0}
    propertyPath: m_Axes.Array.data[7].negativeButton
    value: 
    objectReference: {fileID: 0}
  - target: {fileID: 0}
    propertyPath: m_Axes.Array.data[7].positiveButton
    value: 
    objectReference: {fileID: 0}
  - target: {fileID: 0}
    propertyPath: m_Axes.Array.data[7].altNegativeButton
    value: 
    objectReference: {fileID: 0}
  - target: {fileID: 0}
    propertyPath: m_Axes.Array.data[7].altPositiveButton
    value: 
    objectReference: {fileID: 0}
  - target: {fileID: 0}
    propertyPath: m_Axes.Array.data[7].gravity
    value: 0
    objectReference: {fileID: 0}
  - target: {fileID: 0}
    propertyPath: m_Axes.Array.data[7].dead
    value: 0.15
    objectReference: {fileID: 0}
  - target: {fileID: 0}
    propertyPath: m_Axes.Array.data[7].sensitivity
    value: 1
    objectReference: {fileID: 0}
  - target: {fileID: 0}
    propertyPath: m_Axes.Array.data[7].snap
    value: 0
    objectReference: {fileID: 0}
  - target: {fileID: 0}
    propertyPath: m_Axes.Array.data[7].invert
    value: 0
    objectReference: {fileID: 0}
  - target: {fileID: 0}
    propertyPath: m_Axes.Array.data[7].type
    value: 2
    objectReference: {fileID: 0}
  - target: {fileID: 0}
    propertyPath: m_Axes.Array.data[7].axis
    value: 9
    objectReference: {fileID: 0}
  - target: {fileID: 0}
    propertyPath: m_Axes.Array.data[7].joyNum
    value: 1
    objectReference: {fileID: 0}
  - target: {fileID: 0}
    propertyPath: m_Axes.Array.data[8].m_Name
    value: P1ButtonA
    objectReference: {fileID: 0}
  - target: {fileID: 0}
    propertyPath: m_Axes.Array.data[8].descriptiveName
    value: 
    objectReference: {fileID: 0}
  - target: {fileID: 0}
    propertyPath: m_Axes.Array.data[8].descriptiveNegativeName
    value: 
    objectReference: {fileID: 0}
  - target: {fileID: 0}
    propertyPath: m_Axes.Array.data[8].negativeButton
    value: 
    objectReference: {fileID: 0}
  - target: {fileID: 0}
    propertyPath: m_Axes.Array.data[8].positiveButton
    value: joystick button 0
    objectReference: {fileID: 0}
  - target: {fileID: 0}
    propertyPath: m_Axes.Array.data[8].altNegativeButton
    value: 
    objectReference: {fileID: 0}
  - target: {fileID: 0}
    propertyPath: m_Axes.Array.data[8].altPositiveButton
    value: 
    objectReference: {fileID: 0}
  - target: {fileID: 0}
    propertyPath: m_Axes.Array.data[8].gravity
    value: 1000
    objectReference: {fileID: 0}
  - target: {fileID: 0}
    propertyPath: m_Axes.Array.data[8].dead
    value: 0.001
    objectReference: {fileID: 0}
  - target: {fileID: 0}
    propertyPath: m_Axes.Array.data[8].sensitivity
    value: 1000
    objectReference: {fileID: 0}
  - target: {fileID: 0}
    propertyPath: m_Axes.Array.data[8].snap
    value: 0
    objectReference: {fileID: 0}
  - target: {fileID: 0}
    propertyPath: m_Axes.Array.data[8].invert
    value: 0
    objectReference: {fileID: 0}
  - target: {fileID: 0}
    propertyPath: m_Axes.Array.data[8].type
    value: 0
    objectReference: {fileID: 0}
  - target: {fileID: 0}
    propertyPath: m_Axes.Array.data[8].axis
    value: 0
    objectReference: {fileID: 0}
  - target: {fileID: 0}
    propertyPath: m_Axes.Array.data[8].joyNum
    value: 1
    objectReference: {fileID: 0}
  - target: {fileID: 0}
    propertyPath: m_Axes.Array.data[9].m_Name
    value: P1ButtonB
    objectReference: {fileID: 0}
  - target: {fileID: 0}
    propertyPath: m_Axes.Array.data[9].descriptiveName
    value: 
    objectReference: {fileID: 0}
  - target: {fileID: 0}
    propertyPath: m_Axes.Array.data[9].descriptiveNegativeName
    value: 
    objectReference: {fileID: 0}
  - target: {fileID: 0}
    propertyPath: m_Axes.Array.data[9].negativeButton
    value: 
    objectReference: {fileID: 0}
  - target: {fileID: 0}
    propertyPath: m_Axes.Array.data[9].positiveButton
    value: joystick button 1
    objectReference: {fileID: 0}
  - target: {fileID: 0}
    propertyPath: m_Axes.Array.data[9].altNegativeButton
    value: 
    objectReference: {fileID: 0}
  - target: {fileID: 0}
    propertyPath: m_Axes.Array.data[9].altPositiveButton
    value: 
    objectReference: {fileID: 0}
  - target: {fileID: 0}
    propertyPath: m_Axes.Array.data[9].gravity
    value: 1000
    objectReference: {fileID: 0}
  - target: {fileID: 0}
    propertyPath: m_Axes.Array.data[9].dead
    value: 0.001
    objectReference: {fileID: 0}
  - target: {fileID: 0}
    propertyPath: m_Axes.Array.data[9].sensitivity
    value: 1000
    objectReference: {fileID: 0}
  - target: {fileID: 0}
    propertyPath: m_Axes.Array.data[9].snap
    value: 0
    objectReference: {fileID: 0}
  - target: {fileID: 0}
    propertyPath: m_Axes.Array.data[9].invert
    value: 0
    objectReference: {fileID: 0}
  - target: {fileID: 0}
    propertyPath: m_Axes.Array.data[9].type
    value: 0
    objectReference: {fileID: 0}
  - target: {fileID: 0}
    propertyPath: m_Axes.Array.data[9].axis
    value: 0
    objectReference: {fileID: 0}
  - target: {fileID: 0}
    propertyPath: m_Axes.Array.data[9].joyNum
    value: 1
    objectReference: {fileID: 0}
  - target: {fileID: 0}
    propertyPath: m_Axes.Array.data[10].m_Name
    value: P1ButtonX
    objectReference: {fileID: 0}
  - target: {fileID: 0}
    propertyPath: m_Axes.Array.data[10].descriptiveName
    value: 
    objectReference: {fileID: 0}
  - target: {fileID: 0}
    propertyPath: m_Axes.Array.data[10].descriptiveNegativeName
    value: 
    objectReference: {fileID: 0}
  - target: {fileID: 0}
    propertyPath: m_Axes.Array.data[10].negativeButton
    value: 
    objectReference: {fileID: 0}
  - target: {fileID: 0}
    propertyPath: m_Axes.Array.data[10].positiveButton
    value: joystick button 2
    objectReference: {fileID: 0}
  - target: {fileID: 0}
    propertyPath: m_Axes.Array.data[10].altNegativeButton
    value: 
    objectReference: {fileID: 0}
  - target: {fileID: 0}
    propertyPath: m_Axes.Array.data[10].altPositiveButton
    value: 
    objectReference: {fileID: 0}
  - target: {fileID: 0}
    propertyPath: m_Axes.Array.data[10].gravity
    value: 1000
    objectReference: {fileID: 0}
  - target: {fileID: 0}
    propertyPath: m_Axes.Array.data[10].dead
    value: 0.001
    objectReference: {fileID: 0}
  - target: {fileID: 0}
    propertyPath: m_Axes.Array.data[10].sensitivity
    value: 1000
    objectReference: {fileID: 0}
  - target: {fileID: 0}
    propertyPath: m_Axes.Array.data[10].snap
    value: 0
    objectReference: {fileID: 0}
  - target: {fileID: 0}
    propertyPath: m_Axes.Array.data[10].invert
    value: 0
    objectReference: {fileID: 0}
  - target: {fileID: 0}
    propertyPath: m_Axes.Array.data[10].type
    value: 0
    objectReference: {fileID: 0}
  - target: {fileID: 0}
    propertyPath: m_Axes.Array.data[10].axis
    value: 0
    objectReference: {fileID: 0}
  - target: {fileID: 0}
    propertyPath: m_Axes.Array.data[10].joyNum
    value: 1
    objectReference: {fileID: 0}
  - target: {fileID: 0}
    propertyPath: m_Axes.Array.data[11].m_Name
    value: P1ButtonY
    objectReference: {fileID: 0}
  - target: {fileID: 0}
    propertyPath: m_Axes.Array.data[11].descriptiveName
    value: 
    objectReference: {fileID: 0}
  - target: {fileID: 0}
    propertyPath: m_Axes.Array.data[11].descriptiveNegativeName
    value: 
    objectReference: {fileID: 0}
  - target: {fileID: 0}
    propertyPath: m_Axes.Array.data[11].negativeButton
    value: 
    objectReference: {fileID: 0}
  - target: {fileID: 0}
    propertyPath: m_Axes.Array.data[11].positiveButton
    value: joystick button 3
    objectReference: {fileID: 0}
  - target: {fileID: 0}
    propertyPath: m_Axes.Array.data[11].altNegativeButton
    value: 
    objectReference: {fileID: 0}
  - target: {fileID: 0}
    propertyPath: m_Axes.Array.data[11].altPositiveButton
    value: 
    objectReference: {fileID: 0}
  - target: {fileID: 0}
    propertyPath: m_Axes.Array.data[11].gravity
    value: 1000
    objectReference: {fileID: 0}
  - target: {fileID: 0}
    propertyPath: m_Axes.Array.data[11].dead
    value: 0.001
    objectReference: {fileID: 0}
  - target: {fileID: 0}
    propertyPath: m_Axes.Array.data[11].sensitivity
    value: 1000
    objectReference: {fileID: 0}
  - target: {fileID: 0}
    propertyPath: m_Axes.Array.data[11].snap
    value: 0
    objectReference: {fileID: 0}
  - target: {fileID: 0}
    propertyPath: m_Axes.Array.data[11].invert
    value: 0
    objectReference: {fileID: 0}
  - target: {fileID: 0}
    propertyPath: m_Axes.Array.data[11].type
    value: 0
    objectReference: {fileID: 0}
  - target: {fileID: 0}
    propertyPath: m_Axes.Array.data[11].axis
    value: 0
    objectReference: {fileID: 0}
  - target: {fileID: 0}
    propertyPath: m_Axes.Array.data[11].joyNum
    value: 1
    objectReference: {fileID: 0}
  - target: {fileID: 0}
    propertyPath: m_Axes.Array.data[12].m_Name
    value: P1LeftBumper
    objectReference: {fileID: 0}
  - target: {fileID: 0}
    propertyPath: m_Axes.Array.data[12].descriptiveName
    value: 
    objectReference: {fileID: 0}
  - target: {fileID: 0}
    propertyPath: m_Axes.Array.data[12].descriptiveNegativeName
    value: 
    objectReference: {fileID: 0}
  - target: {fileID: 0}
    propertyPath: m_Axes.Array.data[12].negativeButton
    value: 
    objectReference: {fileID: 0}
  - target: {fileID: 0}
    propertyPath: m_Axes.Array.data[12].positiveButton
    value: joystick button 4
    objectReference: {fileID: 0}
  - target: {fileID: 0}
    propertyPath: m_Axes.Array.data[12].altNegativeButton
    value: 
    objectReference: {fileID: 0}
  - target: {fileID: 0}
    propertyPath: m_Axes.Array.data[12].altPositiveButton
    value: 
    objectReference: {fileID: 0}
  - target: {fileID: 0}
    propertyPath: m_Axes.Array.data[12].gravity
    value: 1000
    objectReference: {fileID: 0}
  - target: {fileID: 0}
    propertyPath: m_Axes.Array.data[12].dead
    value: 0.001
    objectReference: {fileID: 0}
  - target: {fileID: 0}
    propertyPath: m_Axes.Array.data[12].sensitivity
    value: 1000
    objectReference: {fileID: 0}
  - target: {fileID: 0}
    propertyPath: m_Axes.Array.data[12].snap
    value: 0
    objectReference: {fileID: 0}
  - target: {fileID: 0}
    propertyPath: m_Axes.Array.data[12].invert
    value: 0
    objectReference: {fileID: 0}
  - target: {fileID: 0}
    propertyPath: m_Axes.Array.data[12].type
    value: 0
    objectReference: {fileID: 0}
  - target: {fileID: 0}
    propertyPath: m_Axes.Array.data[12].axis
    value: 0
    objectReference: {fileID: 0}
  - target: {fileID: 0}
    propertyPath: m_Axes.Array.data[12].joyNum
    value: 1
    objectReference: {fileID: 0}
  - target: {fileID: 0}
    propertyPath: m_Axes.Array.data[13].m_Name
    value: P1RightBumper
    objectReference: {fileID: 0}
  - target: {fileID: 0}
    propertyPath: m_Axes.Array.data[13].descriptiveName
    value: 
    objectReference: {fileID: 0}
  - target: {fileID: 0}
    propertyPath: m_Axes.Array.data[13].descriptiveNegativeName
    value: 
    objectReference: {fileID: 0}
  - target: {fileID: 0}
    propertyPath: m_Axes.Array.data[13].negativeButton
    value: 
    objectReference: {fileID: 0}
  - target: {fileID: 0}
    propertyPath: m_Axes.Array.data[13].positiveButton
    value: joystick button 5
    objectReference: {fileID: 0}
  - target: {fileID: 0}
    propertyPath: m_Axes.Array.data[13].altNegativeButton
    value: 
    objectReference: {fileID: 0}
  - target: {fileID: 0}
    propertyPath: m_Axes.Array.data[13].altPositiveButton
    value: 
    objectReference: {fileID: 0}
  - target: {fileID: 0}
    propertyPath: m_Axes.Array.data[13].gravity
    value: 1000
    objectReference: {fileID: 0}
  - target: {fileID: 0}
    propertyPath: m_Axes.Array.data[13].dead
    value: 0.001
    objectReference: {fileID: 0}
  - target: {fileID: 0}
    propertyPath: m_Axes.Array.data[13].sensitivity
    value: 1000
    objectReference: {fileID: 0}
  - target: {fileID: 0}
    propertyPath: m_Axes.Array.data[13].snap
    value: 0
    objectReference: {fileID: 0}
  - target: {fileID: 0}
    propertyPath: m_Axes.Array.data[13].invert
    value: 0
    objectReference: {fileID: 0}
  - target: {fileID: 0}
    propertyPath: m_Axes.Array.data[13].type
    value: 0
    objectReference: {fileID: 0}
  - target: {fileID: 0}
    propertyPath: m_Axes.Array.data[13].axis
    value: 0
    objectReference: {fileID: 0}
  - target: {fileID: 0}
    propertyPath: m_Axes.Array.data[13].joyNum
    value: 1
    objectReference: {fileID: 0}
  - target: {fileID: 0}
    propertyPath: m_Axes.Array.data[14].m_Name
    value: P1Select
    objectReference: {fileID: 0}
  - target: {fileID: 0}
    propertyPath: m_Axes.Array.data[14].descriptiveName
    value: 
    objectReference: {fileID: 0}
  - target: {fileID: 0}
    propertyPath: m_Axes.Array.data[14].descriptiveNegativeName
    value: 
    objectReference: {fileID: 0}
  - target: {fileID: 0}
    propertyPath: m_Axes.Array.data[14].negativeButton
    value: 
    objectReference: {fileID: 0}
  - target: {fileID: 0}
    propertyPath: m_Axes.Array.data[14].positiveButton
    value: joystick button 6
    objectReference: {fileID: 0}
  - target: {fileID: 0}
    propertyPath: m_Axes.Array.data[14].altNegativeButton
    value: 
    objectReference: {fileID: 0}
  - target: {fileID: 0}
    propertyPath: m_Axes.Array.data[14].altPositiveButton
    value: 
    objectReference: {fileID: 0}
  - target: {fileID: 0}
    propertyPath: m_Axes.Array.data[14].gravity
    value: 1000
    objectReference: {fileID: 0}
  - target: {fileID: 0}
    propertyPath: m_Axes.Array.data[14].dead
    value: 0.001
    objectReference: {fileID: 0}
  - target: {fileID: 0}
    propertyPath: m_Axes.Array.data[14].sensitivity
    value: 1000
    objectReference: {fileID: 0}
  - target: {fileID: 0}
    propertyPath: m_Axes.Array.data[14].snap
    value: 0
    objectReference: {fileID: 0}
  - target: {fileID: 0}
    propertyPath: m_Axes.Array.data[14].invert
    value: 0
    objectReference: {fileID: 0}
  - target: {fileID: 0}
    propertyPath: m_Axes.Array.data[14].type
    value: 0
    objectReference: {fileID: 0}
  - target: {fileID: 0}
    propertyPath: m_Axes.Array.data[14].axis
    value: 0
    objectReference: {fileID: 0}
  - target: {fileID: 0}
    propertyPath: m_Axes.Array.data[14].joyNum
    value: 1
    objectReference: {fileID: 0}
  - target: {fileID: 0}
    propertyPath: m_Axes.Array.data[15].m_Name
    value: P1Start
    objectReference: {fileID: 0}
  - target: {fileID: 0}
    propertyPath: m_Axes.Array.data[15].descriptiveName
    value: 
    objectReference: {fileID: 0}
  - target: {fileID: 0}
    propertyPath: m_Axes.Array.data[15].descriptiveNegativeName
    value: 
    objectReference: {fileID: 0}
  - target: {fileID: 0}
    propertyPath: m_Axes.Array.data[15].negativeButton
    value: 
    objectReference: {fileID: 0}
  - target: {fileID: 0}
    propertyPath: m_Axes.Array.data[15].positiveButton
    value: joystick button 7
    objectReference: {fileID: 0}
  - target: {fileID: 0}
    propertyPath: m_Axes.Array.data[15].altNegativeButton
    value: 
    objectReference: {fileID: 0}
  - target: {fileID: 0}
    propertyPath: m_Axes.Array.data[15].altPositiveButton
    value: 
    objectReference: {fileID: 0}
  - target: {fileID: 0}
    propertyPath: m_Axes.Array.data[15].gravity
    value: 1000
    objectReference: {fileID: 0}
  - target: {fileID: 0}
    propertyPath: m_Axes.Array.data[15].dead
    value: 0.001
    objectReference: {fileID: 0}
  - target: {fileID: 0}
    propertyPath: m_Axes.Array.data[15].sensitivity
    value: 1000
    objectReference: {fileID: 0}
  - target: {fileID: 0}
    propertyPath: m_Axes.Array.data[15].snap
    value: 0
    objectReference: {fileID: 0}
  - target: {fileID: 0}
    propertyPath: m_Axes.Array.data[15].invert
    value: 0
    objectReference: {fileID: 0}
  - target: {fileID: 0}
    propertyPath: m_Axes.Array.data[15].type
    value: 0
    objectReference: {fileID: 0}
  - target: {fileID: 0}
    propertyPath: m_Axes.Array.data[15].axis
    value: 0
    objectReference: {fileID: 0}
  - target: {fileID: 0}
    propertyPath: m_Axes.Array.data[15].joyNum
    value: 1
    objectReference: {fileID: 0}
  - target: {fileID: 0}
    propertyPath: m_Axes.Array.data[16].m_Name
    value: P1LeftClick
    objectReference: {fileID: 0}
  - target: {fileID: 0}
    propertyPath: m_Axes.Array.data[16].descriptiveName
    value: 
    objectReference: {fileID: 0}
  - target: {fileID: 0}
    propertyPath: m_Axes.Array.data[16].descriptiveNegativeName
    value: 
    objectReference: {fileID: 0}
  - target: {fileID: 0}
    propertyPath: m_Axes.Array.data[16].negativeButton
    value: 
    objectReference: {fileID: 0}
  - target: {fileID: 0}
    propertyPath: m_Axes.Array.data[16].positiveButton
    value: joystick button 8
    objectReference: {fileID: 0}
  - target: {fileID: 0}
    propertyPath: m_Axes.Array.data[16].altNegativeButton
    value: 
    objectReference: {fileID: 0}
  - target: {fileID: 0}
    propertyPath: m_Axes.Array.data[16].altPositiveButton
    value: 
    objectReference: {fileID: 0}
  - target: {fileID: 0}
    propertyPath: m_Axes.Array.data[16].gravity
    value: 1000
    objectReference: {fileID: 0}
  - target: {fileID: 0}
    propertyPath: m_Axes.Array.data[16].dead
    value: 0.001
    objectReference: {fileID: 0}
  - target: {fileID: 0}
    propertyPath: m_Axes.Array.data[16].sensitivity
    value: 1000
    objectReference: {fileID: 0}
  - target: {fileID: 0}
    propertyPath: m_Axes.Array.data[16].snap
    value: 0
    objectReference: {fileID: 0}
  - target: {fileID: 0}
    propertyPath: m_Axes.Array.data[16].invert
    value: 0
    objectReference: {fileID: 0}
  - target: {fileID: 0}
    propertyPath: m_Axes.Array.data[16].type
    value: 0
    objectReference: {fileID: 0}
  - target: {fileID: 0}
    propertyPath: m_Axes.Array.data[16].axis
    value: 0
    objectReference: {fileID: 0}
  - target: {fileID: 0}
    propertyPath: m_Axes.Array.data[16].joyNum
    value: 1
    objectReference: {fileID: 0}
  - target: {fileID: 0}
    propertyPath: m_Axes.Array.data[17].m_Name
    value: P1RightClick
    objectReference: {fileID: 0}
  - target: {fileID: 0}
    propertyPath: m_Axes.Array.data[17].descriptiveName
    value: 
    objectReference: {fileID: 0}
  - target: {fileID: 0}
    propertyPath: m_Axes.Array.data[17].descriptiveNegativeName
    value: 
    objectReference: {fileID: 0}
  - target: {fileID: 0}
    propertyPath: m_Axes.Array.data[17].negativeButton
    value: 
    objectReference: {fileID: 0}
  - target: {fileID: 0}
    propertyPath: m_Axes.Array.data[17].positiveButton
    value: joystick button 9
    objectReference: {fileID: 0}
  - target: {fileID: 0}
    propertyPath: m_Axes.Array.data[17].altNegativeButton
    value: 
    objectReference: {fileID: 0}
  - target: {fileID: 0}
    propertyPath: m_Axes.Array.data[17].altPositiveButton
    value: 
    objectReference: {fileID: 0}
  - target: {fileID: 0}
    propertyPath: m_Axes.Array.data[17].gravity
    value: 1000
    objectReference: {fileID: 0}
  - target: {fileID: 0}
    propertyPath: m_Axes.Array.data[17].dead
    value: 0.001
    objectReference: {fileID: 0}
  - target: {fileID: 0}
    propertyPath: m_Axes.Array.data[17].sensitivity
    value: 1000
    objectReference: {fileID: 0}
  - target: {fileID: 0}
    propertyPath: m_Axes.Array.data[17].snap
    value: 0
    objectReference: {fileID: 0}
  - target: {fileID: 0}
    propertyPath: m_Axes.Array.data[17].invert
    value: 0
    objectReference: {fileID: 0}
  - target: {fileID: 0}
    propertyPath: m_Axes.Array.data[17].type
    value: 0
    objectReference: {fileID: 0}
  - target: {fileID: 0}
    propertyPath: m_Axes.Array.data[17].axis
    value: 0
    objectReference: {fileID: 0}
  - target: {fileID: 0}
    propertyPath: m_Axes.Array.data[17].joyNum
    value: 1
    objectReference: {fileID: 0}
  m_ExcludedProperties: []
