%YAML 1.1
%TAG !u! tag:unity3d.com,2011:
--- !u!1045 &1
EditorBuildSettings:
  m_ObjectHideFlags: 0
  serializedVersion: 2
  m_Scenes:
  - enabled: 1
    path: Assets/CustomAssets/Scenes/MainMenu.unity
    guid: 81fd45d64a9296743b89bd6d75ad3cdd
  - enabled: 1
    path: Assets/CustomAssets/Scenes/MainGameScene.unity
    guid: 9fc0d4010bbf28b4594072e72b8655ab
  - enabled: 1
    path: Assets/CustomAssets/Scenes/WinScene.unity
    guid: 64ad4006c55137c408da0503d98eed4c
  m_configObjects: {}
